{
    "@class": "com.kony.gen.viz.model.component.KVizLabel",
    "DNDConfig": null,
    "__parentReadjusting__": false,
    "_height_": {
        "type": "ref",
        "value": "preferred"
    },
    "_left_": {
        "type": "string",
        "value": "20dp"
    },
    "_margin_": [
        1,
        1,
        1,
        1
    ],
    "_padding_": [
        0,
        0,
        0,
        0
    ],
    "_right_": {
        "type": "string",
        "value": "20dp"
    },
    "_skin_": "s40ffb6f1e1c4417a00dbd30cfffb8cd",
    "_text_": "",
    "_top_": {
        "type": "string",
        "value": "140dp"
    },
    "_wrapping_": 2,
    "accessibilityconfig": {
        "a11yLabel": "You have already added all the accounts you have with us"
    },
    "android": {
        "textStyle": {
            "letterSpacing": 0,
            "strikeThrough": false
        }
    },
    "canUpdateUI": true,
    "containerweight": 100,
    "contentalignment": 4,
    "id": "lblNoAccountsToAddMessage",
    "info": null,
    "ipad": {
        "psp": {
            "wrapping": 2
        }
    },
    "iphone": {
        "psp": {
            "wrapping": 2
        }
    },
    "iscustomlayout": false,
    "isvisible": false,
    "kuid": "a305488d659941fa897dee0c5ab42794",
    "name": "kony.ui.Label",
    "parent": "flxBody",
    "pf": "frmSelectExternalAccounts",
    "retaincontentalignment": false,
    "retainflexpositionproperties": false,
    "texti18n": "kony.mb.accountAggregation.AllAccountsAlreadyAdded",
    "textstyle": {},
    "tooltip": "",
    "wType": "Label",
    "zindex": 1
}