{
    "@class": "com.kony.gen.viz.model.container.KVizSegment2",
    "DNDConfig": null,
    "__parentReadjusting__": false,
    "_bounces_": false,
    "_data_": [
        [
            {
                "lblAvailableExtAccounts": {
                    "@class": "com.viz.ide.model.segment.SimpleTextSegmentData",
                    "text": "Available accounts"
                }
            },
            [
                {
                    "imgBank": {
                        "@class": "com.viz.ide.model.segment.ImageSegmentData",
                        "src": ""
                    },
                    "lblExtAccountBal": {
                        "@class": "com.viz.ide.model.segment.SimpleTextSegmentData",
                        "text": ""
                    },
                    "lblExtAccountBalValue": {
                        "@class": "com.viz.ide.model.segment.SimpleTextSegmentData",
                        "text": ""
                    },
                    "lblExtAccountName": {
                        "@class": "com.viz.ide.model.segment.SimpleTextSegmentData",
                        "text": ""
                    },
                    "lblExtAccountType": {
                        "@class": "com.viz.ide.model.segment.SimpleTextSegmentData",
                        "text": ""
                    }
                }
            ]
        ]
    ],
    "_height_": {
        "type": "ref",
        "value": "preferred"
    },
    "_indicator_": "none",
    "_left_": {
        "type": "string",
        "value": "0dp"
    },
    "_margin_": [
        0,
        0,
        0,
        0
    ],
    "_orientation_": 2,
    "_padding_": [
        0,
        0,
        0,
        0
    ],
    "_top_": {
        "type": "string",
        "value": "71dp"
    },
    "_width_": {
        "type": "string",
        "value": "100%"
    },
    "android": {
        "psp": {
            "dockSectionHeaders": true
        }
    },
    "autogrowmode": 1,
    "canUpdateUI": true,
    "containerweight": 100,
    "counter": "00",
    "enabledictionary": true,
    "focusedindex": null,
    "focuseditem": null,
    "groupcells": false,
    "hasSections": true,
    "id": "segTransactions",
    "info": null,
    "invokedProperty": "unselectedStateImage",
    "ipad": {
        "psp": {
            "indicator": "rowselect"
        }
    },
    "iphone": {
        "psp": {
            "bounces": false,
            "enableDictionary": true,
            "indicator": "none"
        }
    },
    "iscustomlayout": false,
    "isvisible": true,
    "kuid": "c0d6420a137d4685843b86a2617d6604",
    "masterdata": {},
    "maxheight": {
        "type": "string",
        "value": "260dp"
    },
    "name": "kony.ui.SegmentedUI2",
    "needpageindicator": true,
    "pageoffdotimage": "pageoffdot.png",
    "pageondotimage": "pageondot.png",
    "paginationconfig": {
        "position": "bottom"
    },
    "parent": "flxBody",
    "pf": "frmSelectExternalAccounts",
    "retaincontentalignment": false,
    "retainflexpositionproperties": false,
    "retainselection": false,
    "rowTemplateId": "ebd6c41dd7ff402fac79e428789f6be3",
    "rowcounter": 0,
    "rowfocusskin": "s02d7ca459a74168b4573e79b9d8efec",
    "rowskin": "s18472307db04580a2a9cb6f4681ebec",
    "rowtemplate": "flxExternalAccounts",
    "screenlevelwidget": false,
    "seccounter": 0,
    "sectionHeaderTemplateId": "g563fd9c9b89428987f448ab6c68e910",
    "sectionheaderskin": "s65e8b0a8be54624ac979cda71a22cac",
    "sectionheadertemplate": "flxExtAccountsHeader",
    "selectedRows": null,
    "selectedState": false,
    "selectedindex": null,
    "selectedindices": null,
    "selecteditems": null,
    "selectedsectionindex": null,
    "selectimage": "checkboxtick.png",
    "selectionbehavior": "multiselect",
    "selectionbehaviorconfig": {
        "imageIdentifier": "imgBank",
        "selectedStateImage": "checkboxtick.png",
        "unselectedStateImage": "tickmarkbox.png"
    },
    "selectionindicator": "imgBank",
    "separatorcolor": "f1f1f100",
    "separatorrequired": true,
    "separatorthickness": 1,
    "showscrollbars": false,
    "unselectimage": "tickmarkbox.png",
    "viewtype": "tableview",
    "vizProps": {},
    "wType": "Segment",
    "widgetalignment": 5,
    "widgetdatamap": {
        "flxExtAccountsHeader": "flxExtAccountsHeader",
        "flxExternalAccounts": "flxExternalAccounts",
        "flxSeparator": "flxSeparator",
        "flxTypeOneShadow": "flxTypeOneShadow",
        "imgBank": "imgBank",
        "lblAvailableExtAccounts": "lblAvailableExtAccounts",
        "lblExtAccountBal": "lblExtAccountBal",
        "lblExtAccountBalValue": "lblExtAccountBalValue",
        "lblExtAccountName": "lblExtAccountName",
        "lblExtAccountType": "lblExtAccountType"
    },
    "zindex": 1
}