{
    "DNDConfig": null,
    "_bottom_": {
        "type": "string",
        "value": "3%"
    },
    "_height_": {
        "type": "string",
        "value": "140dp"
    },
    "_left_": {
        "type": "string",
        "value": "0dp"
    },
    "_margin_": [
        0,
        0,
        0,
        0
    ],
    "_orientation_": 6,
    "_padding_": [
        0,
        0,
        0,
        0
    ],
    "_percent_": true,
    "_skin_": "s966eaf1ea1441148b4828270a782f8b",
    "_width_": {
        "type": "string",
        "value": "100%"
    },
    "allboxes": [],
    "autogrowmode": 0,
    "canUpdateUI": true,
    "children": [
        "btnFund",
        "btnWithdraw"
    ],
    "clipbounds": true,
    "containerweight": 100,
    "enablescrolling": true,
    "id": "flxBottom",
    "info": null,
    "iscustomlayout": false,
    "isvisible": true,
    "kuid": "c5a492215f79453e9f3f5a0062c29757",
    "layouttype": 2,
    "name": "kony.ui.FlexContainer",
    "parent": "frmBudgetPotDetails",
    "pf": "frmBudgetPotDetails",
    "retaincontentalignment": false,
    "retainflexpositionproperties": false,
    "retainflowhorizontalalignment": false,
    "snapgridsize": 10,
    "snaptogrid": true,
    "wType": "FlexContainer",
    "widgetalignment": 1,
    "zindex": 5
}