{
    "@class": "com.kony.gen.viz.model.component.KVizLabel",
    "DNDConfig": null,
    "__parentReadjusting__": false,
    "_height_": {
        "type": "string",
        "value": "100%"
    },
    "_left_": {
        "type": "string",
        "value": "3dp"
    },
    "_margin_": [
        1,
        1,
        1,
        1
    ],
    "_padding_": [
        0,
        0,
        0,
        0
    ],
    "_skin_": "sa478a9342634a3a86f7c1b9f90a0f25",
    "_text_": "_",
    "_top_": {
        "type": "string",
        "value": "0dp"
    },
    "_width_": {
        "type": "string",
        "value": "6%"
    },
    "_wrapping_": 2,
    "accessibilityconfig": {
        "a11yLabel": "_"
    },
    "android": {
        "textStyle": {
            "letterSpacing": 0,
            "strikeThrough": false
        }
    },
    "canUpdateUI": true,
    "containerweight": 100,
    "contentalignment": 4,
    "id": "lblDigit3",
    "info": null,
    "ipad": {
        "psp": {
            "wrapping": 2
        }
    },
    "iphone": {
        "psp": {
            "wrapping": 2
        },
        "textStyle": {
            "strikeThrough": false,
            "strikeThroughStyle": "thick"
        }
    },
    "isvisible": true,
    "kuid": "acf6e300f4e84fecad253386c06e154e",
    "name": "kony.ui.Label",
    "parent": "flxInputPhoneNo",
    "pf": "frmBillPayPhoneNumber",
    "textstyle": {},
    "tooltip": "",
    "wType": "Label",
    "zindex": 1
}