{
    "DNDConfig": null,
    "__parentReadjusting__": false,
    "_height_": {
        "type": "string",
        "value": "8px"
    },
    "_left_": {
        "type": "string",
        "value": "0dp"
    },
    "_margin_": [
        0,
        0,
        0,
        0
    ],
    "_orientation_": 6,
    "_padding_": [
        0,
        0,
        0,
        0
    ],
    "_percent_": true,
    "_skin_": "scc780d0e23b429d8785ff59321ae26b",
    "_top_": {
        "type": "string",
        "value": "0dp"
    },
    "_width_": {
        "type": "string",
        "value": "100%"
    },
    "allboxes": [],
    "autogrowmode": 0,
    "canUpdateUI": true,
    "children": [
        "flxTypeOneShadow",
        "flxShadowBottom"
    ],
    "clipbounds": false,
    "containerId": true,
    "containerweight": 100,
    "enablescrolling": true,
    "id": "flxHeaderShadows",
    "info": null,
    "iscustomlayout": false,
    "isvisible": true,
    "kuid": "ee1c1a6b177d4f0b95285b0a6a401119",
    "layouttype": 2,
    "name": "kony.ui.FlexContainer",
    "parent": "flxAccountsHeaderDashboardwithBorder",
    "pf": "segAccountsHeaderDashboardwithBorder",
    "retaincontentalignment": false,
    "retainflexpositionproperties": false,
    "snapgridsize": 10,
    "snaptogrid": true,
    "wType": "FlexContainer",
    "widgetalignment": 1,
    "zindex": 1
}