{
    "@class": "com.kony.gen.viz.model.container.KVizScrollFlexForm",
    "DNDConfig": null,
    "_margin_": [
        0,
        0,
        0,
        0
    ],
    "_orientation_": 1,
    "_padding_": [
        0,
        0,
        0,
        0
    ],
    "_percent_": true,
    "_skin_": "sfd374011f8943daa0815da0aecd0408",
    "_title_": "Beneficiary Details",
    "addWidgetsdone": false,
    "allboxes": [],
    "android": {
        "needAppMenu": false,
        "psp": {
            "windowSoftInputMode": 2
        }
    },
    "canUpdateUI": true,
    "children": [
        "flxHeader",
        "flxBenConfirmation",
        "flxButtons",
        "flxAdditionalOptions",
        "flxPopup"
    ],
    "containerweight": 100,
    "controllerInfo": {
        "default": {
            "channel": "mobile",
            "name": "frmBeneficiaryDetailsEuropeController"
        }
    },
    "currentLocale": "default",
    "desktopweb": {
        "needAppMenu": false
    },
    "device": "iPhone11",
    "displayorientation": 1,
    "enabledforidletimeout": true,
    "friendlyName": "frmBeneficiaryDetailsEurope",
    "id": "frmBeneficiaryDetailsEurope",
    "ide_init": "AS_Form_d10a62827207450d82302956733a9d0b",
    "ide_postShow": "AS_Form_ha2567a69e05422a94225d07d2060aba",
    "ide_preShow": "AS_Form_ebd1bfed75ff497b8b98eb5087dabc58",
    "info": null,
    "initdone": false,
    "inputaccessoryviewtype": 4,
    "ipad": {
        "needAppMenu": false,
        "psp": {
            "inputAccessoryViewType": 4
        },
        "titleBar": false
    },
    "iphone": {
        "needAppMenu": false,
        "psp": {
            "inputAccessoryViewType": 4,
            "titleBarAttributes": {
                "backBarButtonItem": {
                    "enabled": true,
                    "info": {
                        "title": "Title"
                    },
                    "kuid": "fcd7c4d32e82479f84a5d2495e6f8eef",
                    "style": 0,
                    "tintColor": "ffffff00",
                    "type": 1
                },
                "barStyle": 0,
                "hidesBackButton": true,
                "kuid": "j9bdecbf56874e5682f5500d3561fd0a",
                "leftBarButtonItems": [
                    {
                        "enabled": true,
                        "info": {
                            "image": "backbutton.png"
                        },
                        "kuid": "eb913baa688f43b3b9ac686a29f4402b",
                        "style": 0,
                        "tintColor": "ffffff00",
                        "type": 0
                    }
                ],
                "leftItemsSupplementBackButton": true,
                "prompt": "",
                "renderTitleText": true,
                "rightBarButtonItems": [
                    {
                        "enabled": true,
                        "ide_onClick": "AS_BarButtonItem_ab6c12595b3c4ae28dcd817417adbcad",
                        "info": {
                            "title": "Edit",
                            "titlei18n": "kony.mb.common.Edit"
                        },
                        "kuid": "c7fca32661424717b0257fec6a08d786",
                        "style": 0,
                        "tintColor": "ffffff00",
                        "type": 1
                    }
                ],
                "tintColor": "ffffff00",
                "translucent": false
            }
        },
        "titleBar": true
    },
    "iscustomlayout": false,
    "isvisible": true,
    "kiosk": {
        "needAppMenu": false
    },
    "kuid": "h9cf250d851447a4a5121ab6f3a3b830",
    "layouttype": 2,
    "name": "kony.ui.Form2",
    "needappmenu": false,
    "paddinginpixel": false,
    "platform": "iphone",
    "prevDevice": "Pixel3",
    "prevPlatform": "android",
    "retaincontentalignment": false,
    "retainflexpositionproperties": false,
    "retainscrollposition": false,
    "shellCSS": "iOS_iPhoneXR",
    "snapgridsize": 10,
    "snaptogrid": true,
    "spaan": {
        "needAppMenu": false
    },
    "spaandroidtablet": {
        "needAppMenu": false
    },
    "spabb": {
        "needAppMenu": false
    },
    "spaip": {
        "needAppMenu": false
    },
    "spaipad": {
        "needAppMenu": false
    },
    "spawindowstablet": {
        "needAppMenu": false
    },
    "spawinphone8": {
        "needAppMenu": false
    },
    "texti18n": "kony.mb.TranfersEurope.BeneficiaryDetails",
    "titleBarSkin": "scb8fcbdebb649d1b5900564018c8da5",
    "titlebar": false,
    "type": 3,
    "wType": "Form",
    "windows8": {
        "needAppMenu": false
    },
    "winphone8": {
        "needAppMenu": false
    }
}