{
    "classname": "login",
    "definitions": {
        "apis": {
            "custom": [],
            "passthrough": []
        },
        "events": {
            "custom": [
                {
                    "group": "General",
                    "kuid": "g1f9ead959ac4cecace8c9a2e9ee2aa3",
                    "paramList": [],
                    "propertyIndex": 1,
                    "propertyKey": "onFocusStart",
                    "pw": {
                        "displayName": "onFocusStart",
                        "uiRepresentation": "Label-Label-Button-Button"
                    },
                    "srcWgtKUID": "ae53e5616c9e4982ad89f667cfdd7a50",
                    "type": "event"
                },
                {
                    "group": "General",
                    "kuid": "afa2edc82ab748348e301d17ee187a9d",
                    "paramList": [],
                    "propertyIndex": 1,
                    "propertyKey": "onFocusEnd",
                    "pw": {
                        "displayName": "onFocusEnd",
                        "uiRepresentation": "Label-Label-Button-Button"
                    },
                    "srcWgtKUID": "ae53e5616c9e4982ad89f667cfdd7a50",
                    "type": "event"
                },
                {
                    "group": "General",
                    "kuid": "c544a0f054e54a13985318437ad5d13d",
                    "paramList": [
                        {
                            "name": "visibility"
                        }
                    ],
                    "propertyIndex": 1,
                    "propertyKey": "onPopupVisible",
                    "pw": {
                        "displayName": "onPopupVisible",
                        "uiRepresentation": "Label-Label-Button-Button"
                    },
                    "srcWgtKUID": "ae53e5616c9e4982ad89f667cfdd7a50",
                    "type": "event"
                },
                {
                    "group": "General",
                    "kuid": "d8e0aaeafc974f5597203fcb8f271109",
                    "paramList": [],
                    "propertyIndex": 1,
                    "propertyKey": "hideDashboardIcon",
                    "pw": {
                        "displayName": "hideDashboardIcon",
                        "uiRepresentation": "Label-Label-Button-Button"
                    },
                    "srcWgtKUID": "ae53e5616c9e4982ad89f667cfdd7a50",
                    "type": "event"
                },
                {
                    "group": "General",
                    "kuid": "e67a211232c74730bb5c084781e35e9c",
                    "paramList": [
                        {
                            "name": "loginSuccessObj"
                        }
                    ],
                    "propertyIndex": 1,
                    "propertyKey": "onLoginSuccess",
                    "pw": {
                        "displayName": "onLoginSuccess",
                        "uiRepresentation": "Label-Label-Button-Button"
                    },
                    "srcWgtKUID": "ae53e5616c9e4982ad89f667cfdd7a50",
                    "type": "event"
                },
                {
                    "group": "General",
                    "kuid": "df7a6b8c2e984fcaa98ff2302ddb0d66",
                    "paramList": [
                        {
                            "name": "errorData"
                        }
                    ],
                    "propertyIndex": 1,
                    "propertyKey": "setErrorStatus",
                    "pw": {
                        "displayName": "setErrorStatus",
                        "uiRepresentation": "Label-Label-Button-Button"
                    },
                    "srcWgtKUID": "ae53e5616c9e4982ad89f667cfdd7a50",
                    "type": "event"
                },
                {
                    "group": "General",
                    "kuid": "ea96467d8549416ca6c551d61ac4f1e2",
                    "paramList": [
                        {
                            "name": "enteredUsername"
                        }
                    ],
                    "propertyIndex": 1,
                    "propertyKey": "forgotNavigation",
                    "pw": {
                        "displayName": "forgotNavigation",
                        "uiRepresentation": "Label-Label-Button-Button"
                    },
                    "srcWgtKUID": "ae53e5616c9e4982ad89f667cfdd7a50",
                    "type": "event"
                }
            ],
            "passthrough": []
        },
        "groups": {
            "apis": [
                "General"
            ],
            "events": [],
            "properties": [
                "Login Service",
                "Skins",
                "Images",
                "Text Properties"
            ],
            "widgets": []
        },
        "properties": {
            "custom": [
                {
                    "access": "Write",
                    "defaultValue": "DbxUserLogin",
                    "group": "Login Service",
                    "kuid": "bb81d8dc6faa47919f7e34cd1a3c82ee",
                    "originalPropertyKey": "identityServiceName",
                    "propertyIndex": 1,
                    "propertyKey": "identityServiceName",
                    "pw": {
                        "displayName": "Identity Service Name",
                        "uiRepresentation": "Label-Textbox"
                    },
                    "srcWgtKUID": "ae53e5616c9e4982ad89f667cfdd7a50",
                    "type": "string",
                    "value": ""
                },
                {
                    "access": "Write",
                    "defaultValue": "sknTbx424242SSPRegular28px",
                    "group": "Skins",
                    "kuid": "f977642c689e44b6a14bf98ef17af67e",
                    "originalPropertyKey": "textBoxNormalSkin",
                    "propertyIndex": 1,
                    "propertyKey": "textBoxNormalSkin",
                    "pw": {
                        "displayName": "TextBox Normal Skin",
                        "uiRepresentation": "Label-Textbox"
                    },
                    "srcWgtKUID": "ae53e5616c9e4982ad89f667cfdd7a50",
                    "type": "string",
                    "value": ""
                },
                {
                    "access": "Write",
                    "defaultValue": "view.png",
                    "group": "Images",
                    "kuid": "hb0afc5f27d24834afcc2166ab8d93cf",
                    "originalPropertyKey": "textVisiblityOffIcon",
                    "propertyIndex": 1,
                    "propertyKey": "textVisiblityOffIcon",
                    "pw": {
                        "displayName": "Text Visiblity Off Icon",
                        "uiRepresentation": "Label-Textbox"
                    },
                    "srcWgtKUID": "ae53e5616c9e4982ad89f667cfdd7a50",
                    "type": "string",
                    "value": ""
                },
                {
                    "access": "Write",
                    "defaultValue": "kony.mb.login.username",
                    "group": "Text Properties",
                    "kuid": "d492068deda94a768b94446d1dfcf095",
                    "originalPropertyKey": "tbx1PlaceholderText",
                    "propertyIndex": 1,
                    "propertyKey": "tbx1PlaceholderText",
                    "pw": {
                        "displayName": "TextBox 1 Placeholder Text",
                        "uiRepresentation": "Label-Textbox"
                    },
                    "srcWgtKUID": "ae53e5616c9e4982ad89f667cfdd7a50",
                    "type": "string",
                    "value": ""
                },
                {
                    "access": "Write",
                    "defaultValue": "sknLbl424242SSPRegular26px",
                    "group": "Skins",
                    "kuid": "ee9cb1fcdd484c6a86487d12cf2ecacc",
                    "originalPropertyKey": "rememberMeLabelSkin",
                    "propertyIndex": 2,
                    "propertyKey": "rememberMeLabelSkin",
                    "pw": {
                        "displayName": "Remember Me Label Skin",
                        "uiRepresentation": "Label-Textbox"
                    },
                    "srcWgtKUID": "ae53e5616c9e4982ad89f667cfdd7a50",
                    "type": "string",
                    "value": ""
                },
                {
                    "access": "Write",
                    "defaultValue": "viewactive.png",
                    "group": "Images",
                    "kuid": "ac474acdb5b34439b3f6aa8b92a7923c",
                    "originalPropertyKey": "textVisiblityOnIcon",
                    "propertyIndex": 2,
                    "propertyKey": "textVisiblityOnIcon",
                    "pw": {
                        "displayName": "Text Visiblity On Icon",
                        "uiRepresentation": "Label-Textbox"
                    },
                    "srcWgtKUID": "ae53e5616c9e4982ad89f667cfdd7a50",
                    "type": "string",
                    "value": ""
                },
                {
                    "access": "Write",
                    "defaultValue": "kony.mb.login.password",
                    "group": "Text Properties",
                    "kuid": "e4d2b81cbe2f46e9890bb7199f0c5954",
                    "originalPropertyKey": "tbx2PlaceholderText",
                    "propertyIndex": 2,
                    "propertyKey": "tbx2PlaceholderText",
                    "pw": {
                        "displayName": "TextBox 2 Placeholder Text",
                        "uiRepresentation": "Label-Textbox"
                    },
                    "srcWgtKUID": "ae53e5616c9e4982ad89f667cfdd7a50",
                    "type": "string",
                    "value": ""
                },
                {
                    "access": "Write",
                    "defaultValue": "sknSwitch0095e4Op100pr000000Op10pr",
                    "group": "Skins",
                    "kuid": "h4b16f5a804e4e50902211c0ff7a511a",
                    "originalPropertyKey": "rememberMeSwitchSkin",
                    "propertyIndex": 3,
                    "propertyKey": "rememberMeSwitchSkin",
                    "pw": {
                        "displayName": "Remember Me Switch Skin",
                        "uiRepresentation": "Label-Textbox"
                    },
                    "srcWgtKUID": "ae53e5616c9e4982ad89f667cfdd7a50",
                    "type": "string",
                    "value": ""
                },
                {
                    "access": "Write",
                    "defaultValue": "faceid.png",
                    "group": "Images",
                    "kuid": "f4e1264c90f34ec59b9c2ebd2b881d9f",
                    "originalPropertyKey": "faceIDPopupImage",
                    "propertyIndex": 3,
                    "propertyKey": "faceIDPopupImage",
                    "pw": {
                        "displayName": "FaceID Popup Image",
                        "uiRepresentation": "Label-Textbox"
                    },
                    "srcWgtKUID": "ae53e5616c9e4982ad89f667cfdd7a50",
                    "type": "string",
                    "value": ""
                },
                {
                    "access": "Write",
                    "defaultValue": "kony.mb.login.rememberMe",
                    "group": "Text Properties",
                    "kuid": "ed2c71054b444cf28357b8b6f9588af5",
                    "originalPropertyKey": "lblRememberMeText",
                    "propertyIndex": 3,
                    "propertyKey": "lblRememberMeText",
                    "pw": {
                        "displayName": "Remember Me Text",
                        "uiRepresentation": "Label-Textbox"
                    },
                    "srcWgtKUID": "ae53e5616c9e4982ad89f667cfdd7a50",
                    "type": "string",
                    "value": ""
                },
                {
                    "access": "Write",
                    "defaultValue": "sknBtn0095e426pxEnabled",
                    "group": "Skins",
                    "kuid": "j4e06d96ea964142adfcb90fca1c14ac",
                    "originalPropertyKey": "btnLoginSkin",
                    "propertyIndex": 4,
                    "propertyKey": "btnLoginSkin",
                    "pw": {
                        "displayName": "Login Button Skin",
                        "uiRepresentation": "Label-Textbox"
                    },
                    "srcWgtKUID": "ae53e5616c9e4982ad89f667cfdd7a50",
                    "type": "string",
                    "value": ""
                },
                {
                    "access": "Write",
                    "defaultValue": "kony.mb.login.cannotLogin",
                    "group": "Text Properties",
                    "kuid": "de78613d0ad94b6f936675dde86d4e2b",
                    "originalPropertyKey": "lblForgotPasswordText",
                    "propertyIndex": 4,
                    "propertyKey": "lblForgotPasswordText",
                    "pw": {
                        "displayName": "Forgot Password Text",
                        "uiRepresentation": "Label-Textbox"
                    },
                    "srcWgtKUID": "ae53e5616c9e4982ad89f667cfdd7a50",
                    "type": "string",
                    "value": ""
                },
                {
                    "access": "Write",
                    "defaultValue": "sknBtnffffff004b95SSPReg107pr",
                    "group": "Skins",
                    "kuid": "i87ad4a51c3b4e169521bb05e3b78349",
                    "originalPropertyKey": "btnTouchPinFaceIdSkin",
                    "propertyIndex": 5,
                    "propertyKey": "btnTouchPinFaceIdSkin",
                    "pw": {
                        "displayName": "Touch Pin Face Login Button Skin",
                        "uiRepresentation": "Label-Textbox"
                    },
                    "srcWgtKUID": "ae53e5616c9e4982ad89f667cfdd7a50",
                    "type": "string",
                    "value": ""
                },
                {
                    "access": "Write",
                    "defaultValue": "kony.mb.login.logIn",
                    "group": "Text Properties",
                    "kuid": "i5bfb0cb5daf4296bb1c071e9c9e1885",
                    "originalPropertyKey": "submitButtonText",
                    "propertyIndex": 5,
                    "propertyKey": "submitButtonText",
                    "pw": {
                        "displayName": "Submit Button Text",
                        "uiRepresentation": "Label-Textbox"
                    },
                    "srcWgtKUID": "ae53e5616c9e4982ad89f667cfdd7a50",
                    "type": "string",
                    "value": ""
                },
                {
                    "access": "Write",
                    "defaultValue": "sknLbl3e4f56SSPReg32px",
                    "group": "Skins",
                    "kuid": "ifc19a686d69436eb8cdf65aafd8f83b",
                    "originalPropertyKey": "pinPopupTitleSkin",
                    "propertyIndex": 6,
                    "propertyKey": "pinPopupTitleSkin",
                    "pw": {
                        "displayName": "Pin Popup Title Skin",
                        "uiRepresentation": "Label-Textbox"
                    },
                    "srcWgtKUID": "ae53e5616c9e4982ad89f667cfdd7a50",
                    "type": "string",
                    "value": ""
                },
                {
                    "access": "Write",
                    "defaultValue": "kony.mb.devReg.TouchId",
                    "group": "Text Properties",
                    "kuid": "e0f5a024c695408496ae612cfaf2e955",
                    "originalPropertyKey": "touchIDBtnText",
                    "propertyIndex": 6,
                    "propertyKey": "touchIDBtnText",
                    "pw": {
                        "displayName": "TouchID Button Text",
                        "uiRepresentation": "Label-Textbox"
                    },
                    "srcWgtKUID": "ae53e5616c9e4982ad89f667cfdd7a50",
                    "type": "string",
                    "value": ""
                },
                {
                    "access": "Write",
                    "defaultValue": "btnNumbere3e3e3B",
                    "group": "Skins",
                    "kuid": "c0080058c5154919a1011ee37dbce1e5",
                    "originalPropertyKey": "pinPopupNumbersSkin",
                    "propertyIndex": 7,
                    "propertyKey": "pinPopupNumbersSkin",
                    "pw": {
                        "displayName": "Pin Popup Numbers Skin",
                        "uiRepresentation": "Label-Textbox"
                    },
                    "srcWgtKUID": "ae53e5616c9e4982ad89f667cfdd7a50",
                    "type": "string",
                    "value": ""
                },
                {
                    "access": "Write",
                    "defaultValue": "kony.mb.login.pinId",
                    "group": "Text Properties",
                    "kuid": "cce443b2dc1545fdb2342c1a723d27cf",
                    "originalPropertyKey": "pinIDBtnText",
                    "propertyIndex": 7,
                    "propertyKey": "pinIDBtnText",
                    "pw": {
                        "displayName": "PinID Button Text",
                        "uiRepresentation": "Label-Textbox"
                    },
                    "srcWgtKUID": "ae53e5616c9e4982ad89f667cfdd7a50",
                    "type": "string",
                    "value": ""
                },
                {
                    "access": "Write",
                    "defaultValue": "sknFlxImgCancel",
                    "group": "Skins",
                    "kuid": "c2fb83fdb6d747cfaf86ac5a0d3f337f",
                    "originalPropertyKey": "pinPopupClearButtonSkin",
                    "propertyIndex": 8,
                    "propertyKey": "pinPopupClearButtonSkin",
                    "pw": {
                        "displayName": "Pin Popup Clear Button Skin",
                        "uiRepresentation": "Label-Textbox"
                    },
                    "srcWgtKUID": "ae53e5616c9e4982ad89f667cfdd7a50",
                    "type": "string",
                    "value": ""
                },
                {
                    "access": "Write",
                    "defaultValue": "kony.mb.common.FaceCaps",
                    "group": "Text Properties",
                    "kuid": "j1c7a2256c39432aa7cb45d92a3257fa",
                    "originalPropertyKey": "faceIDBtnText",
                    "propertyIndex": 8,
                    "propertyKey": "faceIDBtnText",
                    "pw": {
                        "displayName": "FaceID Button Text",
                        "uiRepresentation": "Label-Textbox"
                    },
                    "srcWgtKUID": "ae53e5616c9e4982ad89f667cfdd7a50",
                    "type": "string",
                    "value": ""
                },
                {
                    "access": "Write",
                    "defaultValue": "sknLbl0095e4SSPReg30px",
                    "group": "Skins",
                    "kuid": "g9205479732d44ce880b80629a77dce6",
                    "originalPropertyKey": "popupCancelButtonSkin",
                    "propertyIndex": 9,
                    "propertyKey": "popupCancelButtonSkin",
                    "pw": {
                        "displayName": "Popup Cancel Button Skin",
                        "uiRepresentation": "Label-Textbox"
                    },
                    "srcWgtKUID": "ae53e5616c9e4982ad89f667cfdd7a50",
                    "type": "string",
                    "value": ""
                },
                {
                    "access": "Write",
                    "defaultValue": "kony.mb.login.enterLoginPin",
                    "group": "Text Properties",
                    "kuid": "ef73b87c0249405494b60d6f1376739a",
                    "originalPropertyKey": "pinPopupTitleText",
                    "propertyIndex": 9,
                    "propertyKey": "pinPopupTitleText",
                    "pw": {
                        "displayName": "Pin Popup Title Text",
                        "uiRepresentation": "Label-Textbox"
                    },
                    "srcWgtKUID": "ae53e5616c9e4982ad89f667cfdd7a50",
                    "type": "string",
                    "value": ""
                },
                {
                    "access": "Write",
                    "defaultValue": "sknLbl3e4f56SSPReg30px",
                    "group": "Skins",
                    "kuid": "hb8bc138c5f34db0996281c6a1b9e3f0",
                    "originalPropertyKey": "faceIDPopupTitleSkin",
                    "propertyIndex": 10,
                    "propertyKey": "faceIDPopupTitleSkin",
                    "pw": {
                        "displayName": "FaceID Popup Title Skin",
                        "uiRepresentation": "Label-Textbox"
                    },
                    "srcWgtKUID": "ae53e5616c9e4982ad89f667cfdd7a50",
                    "type": "string",
                    "value": ""
                },
                {
                    "access": "Write",
                    "defaultValue": "kony.mb.common.Cancel",
                    "group": "Text Properties",
                    "kuid": "c4f77c8fd93942b4ae39bf9299437208",
                    "originalPropertyKey": "popupCancelBtnText",
                    "propertyIndex": 10,
                    "propertyKey": "popupCancelBtnText",
                    "pw": {
                        "displayName": "Popup Cancel Button Text",
                        "uiRepresentation": "Label-Textbox"
                    },
                    "srcWgtKUID": "ae53e5616c9e4982ad89f667cfdd7a50",
                    "type": "string",
                    "value": ""
                },
                {
                    "access": "Write",
                    "defaultValue": "sknLbl3e4f56op50SSPReg30px",
                    "group": "Skins",
                    "kuid": "h6fe33492c304dbfbc4fec98fb09803a",
                    "originalPropertyKey": "faceIDPopupDescSkin",
                    "propertyIndex": 11,
                    "propertyKey": "faceIDPopupDescSkin",
                    "pw": {
                        "displayName": "FaceID Popup Description Skin",
                        "uiRepresentation": "Label-Textbox"
                    },
                    "srcWgtKUID": "ae53e5616c9e4982ad89f667cfdd7a50",
                    "type": "string",
                    "value": ""
                },
                {
                    "access": "Write",
                    "defaultValue": "kony.mb.login.faceIdTitle",
                    "group": "Text Properties",
                    "kuid": "j0fcf66e063e4081968c3911a5f97b70",
                    "originalPropertyKey": "faceIDPopupTitleText",
                    "propertyIndex": 11,
                    "propertyKey": "faceIDPopupTitleText",
                    "pw": {
                        "displayName": "FaceID Popup Ttile Text",
                        "uiRepresentation": "Label-Textbox"
                    },
                    "srcWgtKUID": "ae53e5616c9e4982ad89f667cfdd7a50",
                    "type": "string",
                    "value": ""
                },
                {
                    "access": "Write",
                    "defaultValue": "kony.mb.login.authenticationMsg",
                    "group": "Text Properties",
                    "kuid": "e3ff9ace6bd444eeab480396803f32be",
                    "originalPropertyKey": "faceIDPopupDescText",
                    "propertyIndex": 12,
                    "propertyKey": "faceIDPopupDescText",
                    "pw": {
                        "displayName": "FaceID Popup Description Text",
                        "uiRepresentation": "Label-Textbox"
                    },
                    "srcWgtKUID": "ae53e5616c9e4982ad89f667cfdd7a50",
                    "type": "string",
                    "value": ""
                },
                {
                    "access": "Write",
                    "defaultValue": "sknBtna0a0a0SSPReg26px",
                    "group": "Skins",
                    "kuid": "j6fd846199a146ea99adc11cede781c1",
                    "originalPropertyKey": "btnLoginDisabledSkin",
                    "propertyIndex": 12,
                    "propertyKey": "btnLoginDisabledSkin",
                    "pw": {
                        "displayName": "Submit Button Disabled Skin",
                        "uiRepresentation": "Label-Textbox"
                    },
                    "srcWgtKUID": "ae53e5616c9e4982ad89f667cfdd7a50",
                    "type": "string",
                    "value": ""
                }
            ],
            "passthrough": []
        },
        "widgets": {
            "expose": [],
            "passthrough": []
        }
    },
    "namespace": "com.temenos.infinity",
    "version": "1.0.0"
}