{
    "@class": "com.kony.gen.viz.model.component.KVizUserWidget",
    "DNDConfig": null,
    "__parentReadjusting__": false,
    "_children_": [],
    "_height_": {
        "type": "string",
        "value": "100%"
    },
    "_left_": {
        "type": "string",
        "value": "0dp"
    },
    "_margin_": [
        0,
        0,
        0,
        0
    ],
    "_orientation_": 1,
    "_padding_": [
        0,
        0,
        0,
        0
    ],
    "_percent_": true,
    "_render_": true,
    "_skin_": "s245b1b5ec7340e6a5e57f7df3c3533a",
    "_top_": {
        "type": "string",
        "value": "0dp"
    },
    "_width_": {
        "type": "string",
        "value": "100%"
    },
    "autogrowmode": 0,
    "canUpdateUI": true,
    "clipbounds": true,
    "containerweight": 0,
    "data": {
        "ide_cancelReset": "AS_UWI_b8e6cbb0ca854bd790d320199ef7d057",
        "ide_onFailureCallback": "AS_UWI_da396c80f5e54804aa46b68beb3af3ec",
        "ide_onSuccessCallback": "AS_UWI_c73106b14aa34e8faa25351719bedf20"
    },
    "enablescrolling": true,
    "id": "resetPassword",
    "info": null,
    "iscustomlayout": false,
    "issegmentchild": false,
    "isvisible": true,
    "kuid": "e76ed6bb0f5647fcb8d951c2417ac31b",
    "layouttype": 2,
    "masterType": 1,
    "name": "kony.ui.UserWidgetInstance",
    "parent": "frmForgotResetInformation",
    "pf": "frmForgotResetInformation",
    "retaincontentalignment": false,
    "retainflexpositionproperties": false,
    "retainflowhorizontalalignment": false,
    "snapgridsize": 10,
    "snaptogrid": true,
    "sourceUserWidget": "b5a805d77b514e6d9fdc1a4698aea0e0",
    "wType": "UserWidgetInstance",
    "zindex": 500
}