{
    "@class": "com.kony.gen.viz.model.component.KVizButton",
    "DNDConfig": null,
    "__parentReadjusting__": false,
    "_height_": {
        "type": "string",
        "value": "40dp"
    },
    "_margin_": [
        6,
        6,
        6,
        6
    ],
    "_padding_": [
        0,
        0,
        0,
        0
    ],
    "_skin_": "s4c7b9e6ce2a4c1f9e7a517485864c02",
    "_text_": "Close Saving Goal",
    "_width_": {
        "type": "string",
        "value": "90%"
    },
    "accessibilityconfig": {
        "a11yLabel": "CONFIRM"
    },
    "canUpdateUI": true,
    "centerx": {
        "type": "string",
        "value": "50%"
    },
    "containerweight": 100,
    "contentalignment": 5,
    "disabledSkins": {},
    "displaytext": true,
    "focusskin": "s4c7b9e6ce2a4c1f9e7a517485864c02",
    "id": "btnClose",
    "info": null,
    "iphone": {
        "psp": {
            "showProgressIndicator": false
        }
    },
    "isvisible": true,
    "kuid": "g26f6b1cf584463cb45d73209e666bc1",
    "name": "kony.ui.Button",
    "parent": "flxButtons",
    "pf": "frmEditBudget",
    "texti18n": "i18n.savingspot.closeBudget",
    "wType": "Button",
    "zindex": 1
}