{
    "@class": "com.kony.gen.viz.model.component.KVizUserWidget",
    "DNDConfig": null,
    "__parentReadjusting__": false,
    "_children_": [],
    "_height_": {
        "type": "string",
        "value": "40dp"
    },
    "_left_": {
        "type": "string",
        "value": "0dp"
    },
    "_margin_": [
        0,
        0,
        0,
        0
    ],
    "_orientation_": 1,
    "_padding_": [
        0,
        0,
        0,
        0
    ],
    "_percent_": true,
    "_render_": true,
    "_skin_": "s966eaf1ea1441148b4828270a782f8b",
    "_top_": {
        "type": "string",
        "value": "0dp"
    },
    "_width_": {
        "type": "string",
        "value": "100%"
    },
    "areflexpropsreferenced": false,
    "autogrowmode": 0,
    "canUpdateUI": true,
    "clipbounds": false,
    "containerweight": 100,
    "dataDiffs": {
        "btnCancel": {
            "__events__": {},
            "__info__": {
                "kuid": "h9cd290a6941454c90c94d45e5d3f08d",
                "srcKUID": "cf0f0a7a19664002a53a1f77e7082c6c",
                "wType": "Button"
            },
            "i18n_text": "kony.mb.common.Cancel"
        },
        "customSearchbox": {
            "__events__": {},
            "__info__": {
                "isRoot": true,
                "kuid": "dbf7b4de5b624b6c8f94dc8b97de8207",
                "srcKUID": "f1b1b5e40a58453ab9a1b4f121e4f4eb",
                "wType": "FlexContainer"
            }
        },
        "flxHeaderShadow": {
            "__events__": {},
            "__info__": {
                "kuid": "ce4dd47123884acb9f44232c1e69a2b1",
                "srcKUID": "f2d9c4a6a40143d8810c778f5f634853",
                "wType": "FlexContainer"
            }
        },
        "flxSearch": {
            "__events__": {},
            "__info__": {
                "kuid": "c5a05354d6ef46dda2585ee008475373",
                "srcKUID": "b3770ab32332447ab59176519234cee8",
                "wType": "FlexContainer"
            }
        },
        "flxSearchMain": {
            "__events__": {},
            "__info__": {
                "kuid": "fee71d69ba274988831bf21b7748ccbe",
                "srcKUID": "db20269d51344928b8ba8a9b29d0741f",
                "wType": "FlexContainer"
            }
        },
        "imgSearch": {
            "__events__": {},
            "__info__": {
                "kuid": "c4450edbc2574faa9c9c43a8e1c2c06f",
                "srcKUID": "f9d61cc007354263ab63d0c7a742aa41",
                "wType": "Image"
            },
            "src": "searchblue.png"
        },
        "imgSearchIcon": {
            "__events__": {},
            "__info__": {
                "kuid": "j51980b275a7464bbf2cc0f5bb9bdb31",
                "srcKUID": "j657ec465367414995d83c0c48f49c43",
                "wType": "Image"
            },
            "src": "search.png"
        },
        "tbxSearch": {
            "__events__": {},
            "__info__": {
                "kuid": "i52a164d301d4c32ad654bcb3be0eb18",
                "srcKUID": "b9d79b6a7ddf4527a22a3e3cc610c0f5",
                "wType": "TextField"
            },
            "placeholder": "Search "
        }
    },
    "id": "customSearchbox",
    "info": null,
    "iscustomlayout": false,
    "isdatareferenced": false,
    "isvisible": true,
    "kuid": "dbf7b4de5b624b6c8f94dc8b97de8207",
    "layouttype": 2,
    "masterType": 0,
    "name": "kony.ui.UserWidgetInstance",
    "parent": "flxHeaderSearchbox",
    "pf": "frmEuropeTransferFromAccount",
    "retaincontentalignment": false,
    "retainflexpositionproperties": false,
    "sourceUserWidget": "f1b1b5e40a58453ab9a1b4f121e4f4eb",
    "vizprops": {
        "hidewidgethierarchy": false
    },
    "wType": "UserWidgetInstance"
}