{
    "DNDConfig": null,
    "_height_": {
        "type": "string",
        "value": "180dp"
    },
    "_left_": {
        "type": "string",
        "value": "0"
    },
    "_margin_": [
        0,
        0,
        0,
        0
    ],
    "_orientation_": 6,
    "_padding_": [
        0,
        0,
        0,
        0
    ],
    "_percent_": true,
    "_skin_": "s966eaf1ea1441148b4828270a782f8b",
    "_top_": {
        "type": "string",
        "value": "0dp"
    },
    "_width_": {
        "type": "string",
        "value": "100%"
    },
    "allboxes": [],
    "android": {
        "bottom": "",
        "centerX": "",
        "centerY": "",
        "maxHeight": "",
        "maxWidth": "",
        "minHeight": "",
        "minWidth": "",
        "top": "0dp",
        "width": "100%"
    },
    "autogrowmode": 0,
    "canUpdateUI": true,
    "children": [
        "flxSuccess"
    ],
    "clipbounds": true,
    "containerweight": 100,
    "enablescrolling": true,
    "id": "flxConfirmation",
    "info": null,
    "iscustomlayout": false,
    "isvisible": true,
    "kuid": "f27165507c7a4cb4bbfd056c308532e4",
    "layouttype": 2,
    "name": "kony.ui.FlexContainer",
    "parent": "flxConfirmationMain",
    "pf": "frmSCAcknowledgement",
    "retaincontentalignment": false,
    "retainflexpositionproperties": false,
    "snapgridsize": 10,
    "snaptogrid": true,
    "wType": "FlexContainer",
    "widgetalignment": 1,
    "zindex": 1
}