{
    "@class": "com.kony.gen.viz.model.container.KVizSegment2",
    "DNDConfig": null,
    "__parentReadjusting__": false,
    "_data_": [
        [
            {
                "imgUpArrow": {
                    "@class": "com.viz.ide.model.segment.ImageSegmentData",
                    "src": ""
                },
                "lblHeader": {
                    "@class": "com.viz.ide.model.segment.SimpleTextSegmentData",
                    "text": ""
                }
            },
            [
                {
                    "imgSelection": {
                        "@class": "com.viz.ide.model.segment.ImageSegmentData",
                        "src": ""
                    },
                    "lblName": {
                        "@class": "com.viz.ide.model.segment.SimpleTextSegmentData",
                        "text": ""
                    }
                }
            ]
        ]
    ],
    "_height_": {
        "type": "ref",
        "value": "preferred"
    },
    "_indicator_": "none",
    "_left_": {
        "type": "string",
        "value": "0dp"
    },
    "_margin_": [
        0,
        0,
        0,
        0
    ],
    "_orientation_": 2,
    "_padding_": [
        0,
        0,
        0,
        0
    ],
    "_top_": {
        "type": "string",
        "value": "5dp"
    },
    "_width_": {
        "type": "string",
        "value": "100%"
    },
    "autogrowmode": 1,
    "canUpdateUI": true,
    "containerweight": 100,
    "counter": "00",
    "focusedindex": null,
    "focuseditem": null,
    "groupcells": false,
    "hasSections": true,
    "id": "segGroupBy",
    "info": null,
    "ipad": {
        "psp": {
            "indicator": "rowselect"
        }
    },
    "iphone": {
        "psp": {
            "indicator": "none"
        }
    },
    "iscustomlayout": false,
    "isvisible": true,
    "kuid": "a5e617ebdcbd4e95bfd29a3e1bd7824e",
    "masterdata": {},
    "name": "kony.ui.SegmentedUI2",
    "needpageindicator": true,
    "pageoffdotimage": "pageoffdot.png",
    "pageondotimage": "pageondot.png",
    "paginationconfig": {
        "position": "bottom"
    },
    "parent": "flxBody",
    "pf": "frmFilterAccounts",
    "retaincontentalignment": false,
    "retainflexpositionproperties": false,
    "retainselection": false,
    "rowTemplateId": "he24af70e94c46df8a358ae80f11865e",
    "rowcounter": 0,
    "rowfocusskin": "sec47134c53840738acea176209ff716",
    "rowskin": "s18472307db04580a2a9cb6f4681ebec",
    "rowtemplate": "flxFilterRows",
    "screenlevelwidget": false,
    "seccounter": 0,
    "sectionHeaderTemplateId": "j6e14c9b57714631a6407175f90a6fbe",
    "sectionheaderskin": "s65e8b0a8be54624ac979cda71a22cac",
    "sectionheadertemplate": "flxFilterAccountsHeaderExpCollapse",
    "selectedRows": null,
    "selectedState": false,
    "selectedindex": null,
    "selectedindices": null,
    "selecteditems": null,
    "selectedsectionindex": null,
    "selectionbehavior": "default",
    "separatorcolor": "aaaaaa00",
    "separatorrequired": true,
    "separatorthickness": 0,
    "showscrollbars": false,
    "viewtype": "tableview",
    "vizProps": {},
    "wType": "Segment",
    "widgetalignment": 5,
    "widgetdatamap": {
        "flxContent": "flxContent",
        "flxFilterAccountsHeaderExpCollapse": "flxFilterAccountsHeaderExpCollapse",
        "flxFilterRows": "flxFilterRows",
        "flxImgUp": "flxImgUp",
        "flxSelection": "flxSelection",
        "flxSeparator": "flxSeparator",
        "flxSeparatorHeader": "flxSeparatorHeader",
        "imgSelection": "imgSelection",
        "imgUpArrow": "imgUpArrow",
        "lblHeader": "lblHeader",
        "lblName": "lblName"
    },
    "zindex": 5
}