{
    "@class": "com.kony.gen.viz.model.component.KVizButton",
    "DNDConfig": null,
    "__parentReadjusting__": false,
    "_bottom_": {
        "type": "string",
        "value": "20dp"
    },
    "_height_": {
        "type": "string",
        "value": "40dp"
    },
    "_left_": {
        "type": "string",
        "value": "20dp"
    },
    "_margin_": [
        6,
        6,
        6,
        6
    ],
    "_padding_": [
        0,
        0,
        0,
        0
    ],
    "_right_": {
        "type": "string",
        "value": "20dp"
    },
    "_skin_": "sc61e719c72447bf9f14db24bea23eb3",
    "_text_": "",
    "_top_": {
        "type": "string",
        "value": "0dp"
    },
    "_width_": {
        "type": "string",
        "value": "87%"
    },
    "accessibilityconfig": {
        "a11yLabel": "DISPUTE TRANSACTION"
    },
    "canUpdateUI": true,
    "centerx": {
        "type": "string",
        "value": "50%"
    },
    "containerweight": 100,
    "contentalignment": 5,
    "disabledSkins": {},
    "displaytext": true,
    "focusskin": "sd85a0f475ff4b3b9f0a5e4b82f68213",
    "id": "buttonSendMessage",
    "info": null,
    "isvisible": true,
    "kuid": "g4e04368fb0844b28ab4451d57af9be8",
    "name": "kony.ui.Button",
    "parent": "flexButtons",
    "pf": "frmChequeTransactionDetails",
    "texti18n": "kony.mb.chequeManagement.sendMessage",
    "wType": "Button",
    "zindex": 1
}