{
    "DNDConfig": null,
    "__parentReadjusting__": false,
    "_bottom_": {
        "type": "string",
        "value": "0dp"
    },
    "_left_": {
        "type": "string",
        "value": "0dp"
    },
    "_margin_": [
        0,
        0,
        0,
        0
    ],
    "_orientation_": 6,
    "_padding_": [
        0,
        0,
        0,
        0
    ],
    "_percent_": true,
    "_skin_": "sf9159f2a6c64cecba0c14c3fe3af05a",
    "_top_": {
        "type": "string",
        "value": "56dp"
    },
    "_width_": {
        "type": "string",
        "value": "100%"
    },
    "allboxes": [],
    "allowhorizontalbounce": false,
    "allowverticalbounce": true,
    "android": {
        "top": {
            "type": "string",
            "value": "56dp"
        }
    },
    "bounces": true,
    "canUpdateUI": true,
    "children": [
        "flxTransfer",
        "flxsegdetail",
        "flxdetails",
        "flxButtonSeparator",
        "flxbtnApproveReject",
        "flxbtnWithdraw"
    ],
    "clipbounds": true,
    "containerweight": 100,
    "decelerat": false,
    "dragg": false,
    "enablescrolling": true,
    "horizontalscrollindicator": true,
    "id": "flxTransfers",
    "info": null,
    "iphone": {
        "bottom": {
            "type": "string",
            "value": "60dp"
        },
        "top": {
            "type": "string",
            "value": "0dp"
        }
    },
    "iscustomlayout": false,
    "isvisible": true,
    "kuid": "e8ccf5ca4d65474dbe2f530f35c2d297",
    "layouttype": 4,
    "name": "kony.ui.FlexScrollContainer",
    "pagingenabled": false,
    "parent": "frmACHTransactionDetail",
    "pf": "frmACHTransactionDetail",
    "retaincontentalignment": false,
    "retainflexpositionproperties": false,
    "scrolldirection": 2,
    "snapgridsize": 10,
    "snaptogrid": true,
    "track": false,
    "verticalscrollindicator": true,
    "wType": "FlexScrollContainer",
    "widgetalignment": 1,
    "zindex": 3
}