{
    "DNDConfig": null,
    "__parentReadjusting__": false,
    "_bottom_": {
        "type": "string",
        "value": "140dp"
    },
    "_left_": {
        "type": "string",
        "value": "0dp"
    },
    "_margin_": [
        0,
        0,
        0,
        0
    ],
    "_orientation_": 6,
    "_padding_": [
        0,
        0,
        0,
        0
    ],
    "_percent_": true,
    "_skin_": "s30f1652037f4814baf0802f245c0006",
    "_top_": {
        "type": "string",
        "value": "56dp"
    },
    "_width_": {
        "type": "string",
        "value": "100%"
    },
    "allboxes": [],
    "allowhorizontalbounce": false,
    "allowverticalbounce": true,
    "bounces": true,
    "canUpdateUI": true,
    "children": [
        "flxToastDummy",
        "flxShadow",
        "flxUpcommingBillDetails",
        "lblPayeeFullName",
        "flxpayeefullname",
        "lbleBillStatus",
        "flxebill",
        "lblAccountNumber",
        "lblAccountNumberValue",
        "lblPayeeAddress",
        "lblPayeeAddressValue",
        "lblNameOnBill",
        "lblNameOnBillValue",
        "lblNickName",
        "lblNickNameValue"
    ],
    "clipbounds": false,
    "containerweight": 100,
    "decelerat": false,
    "dragg": false,
    "enablescrolling": true,
    "horizontalscrollindicator": true,
    "id": "flxMainContainer",
    "info": null,
    "iphone": {
        "top": {
            "type": "string",
            "value": "0dp"
        }
    },
    "iscustomlayout": false,
    "isvisible": true,
    "kuid": "f49ba26fcc574dbeb170ff17979c9949",
    "layouttype": 4,
    "name": "kony.ui.FlexScrollContainer",
    "pagingenabled": false,
    "parent": "frmBillPayPayeeDetails",
    "pf": "frmBillPayPayeeDetails",
    "retaincontentalignment": false,
    "retainflexpositionproperties": false,
    "scrolldirection": 2,
    "snapgridsize": 10,
    "snaptogrid": true,
    "track": false,
    "verticalscrollindicator": true,
    "vizProps": {},
    "wType": "FlexScrollContainer",
    "widgetalignment": 1,
    "zindex": 2
}