{
    "DNDConfig": null,
    "__parentReadjusting__": false,
    "_height_": {
        "type": "string",
        "value": "40dp"
    },
    "_left_": {
        "type": "string",
        "value": "20dp"
    },
    "_margin_": [
        0,
        0,
        0,
        0
    ],
    "_orientation_": 6,
    "_padding_": [
        0,
        0,
        0,
        0
    ],
    "_percent_": true,
    "_right_": {
        "type": "string",
        "value": "20dp"
    },
    "_skin_": "s196a5eae048463cacc7e9cdd13cd4e8",
    "_top_": {
        "type": "string",
        "value": "61dp"
    },
    "allboxes": [],
    "autogrowmode": 0,
    "canUpdateUI": true,
    "centerx": {
        "type": "string",
        "value": "50%"
    },
    "children": [
        "lblAccountNumber",
        "lblDigit1",
        "lblDigit2",
        "lblDigit3",
        "lblDigit4",
        "lblDigit5",
        "lblDigit6",
        "lblDigit7",
        "lblDigit8",
        "lblDigit9",
        "lblDigit10",
        "lblDigit11",
        "lblDigit12",
        "lblDigit13",
        "lblDigit14",
        "lblDigit15",
        "lblDigit16",
        "lblDigit17",
        "lblDigit18"
    ],
    "clipbounds": true,
    "containerweight": 100,
    "enablescrolling": true,
    "id": "flxInputAccNo",
    "info": null,
    "isvisible": true,
    "kuid": "f6734fd782fc49a2bad0427771fb4660",
    "layouttype": 2,
    "name": "kony.ui.FlexContainer",
    "parent": "flxMain",
    "pf": "frmBillPayEnterAccNo",
    "snapgridsize": 10,
    "snaptogrid": true,
    "wType": "FlexContainer",
    "widgetalignment": 1,
    "zindex": 1
}