{
    "@class": "com.kony.gen.viz.model.component.KVizUserWidget",
    "DNDConfig": null,
    "__parentReadjusting__": false,
    "_android_": {},
    "_children_": [],
    "_height_": {
        "type": "string",
        "value": "100%"
    },
    "_left_": {
        "type": "string",
        "value": "0dp"
    },
    "_margin_": [
        0,
        0,
        0,
        0
    ],
    "_orientation_": 1,
    "_padding_": [
        0,
        0,
        0,
        0
    ],
    "_percent_": true,
    "_render_": true,
    "_skin_": "s966eaf1ea1441148b4828270a782f8b",
    "_top_": {
        "type": "string",
        "value": "0dp"
    },
    "_vizProps_": {
        "hidewidgethierarchy": false
    },
    "_width_": {
        "type": "string",
        "value": "100%"
    },
    "areflexpropsreferenced": false,
    "canUpdateUI": true,
    "clipbounds": true,
    "containerweight": 0,
    "dataDiffs": {
        "btnEight": {
            "__events__": {
                "ide_onClick": "AS_Button_a75e8b5e531d49c9b7edae9c12363d52"
            },
            "__info__": {
                "kuid": "b63ba4de2f4a4122a40a3cd346ff9b5f",
                "srcKUID": "f6e7e4d9eb3f410695aea9d658ebf05d",
                "wType": "Button"
            }
        },
        "btnFive": {
            "__events__": {
                "ide_onClick": "AS_Button_d8e20fb2e5664a33886a807e3359666a"
            },
            "__info__": {
                "kuid": "bfed656078ee4bc4875614302c2108a1",
                "srcKUID": "j0a6ba60d24246f2ac902c1168bfa460",
                "wType": "Button"
            }
        },
        "btnFour": {
            "__events__": {
                "ide_onClick": "AS_Button_i8927e276e284992bbf5cc7110df4f85"
            },
            "__info__": {
                "kuid": "ic6b3d4c793046ddae0fc2463816f71d",
                "srcKUID": "a7185288127a4357b7cef4885aa9ce6f",
                "wType": "Button"
            }
        },
        "btnNine": {
            "__events__": {
                "ide_onClick": "AS_Button_d120c5f4681b4d4d87703df00990d819"
            },
            "__info__": {
                "kuid": "deff126ea2d843c9b181c29f3a3f2295",
                "srcKUID": "df170410708f4678a388d09089eb0921",
                "wType": "Button"
            }
        },
        "btnOne": {
            "__events__": {
                "ide_onClick": "AS_Button_f5befcc5afe244939f3641d6c84abb5e"
            },
            "__info__": {
                "kuid": "b96095835a474b9c8de59b6c1da66819",
                "srcKUID": "hc9bb69e77304fd7a9de1f054d5498fb",
                "wType": "Button"
            }
        },
        "btnSeven": {
            "__events__": {
                "ide_onClick": "AS_Button_g2f96fecf33b41aeb632f913aa73912a"
            },
            "__info__": {
                "kuid": "b98ecc48772747cb94e6a68e46189279",
                "srcKUID": "ddb281307e3f4eb38d8bc392367917a8",
                "wType": "Button"
            }
        },
        "btnSix": {
            "__events__": {
                "ide_onClick": "AS_Button_bb947477cbdb4d2995cf5c9fdd69ab2b"
            },
            "__info__": {
                "kuid": "fa48b22192f7400b82d6cca0a18abaca",
                "srcKUID": "dd522e0178db4a0aafe9071c6e2221db",
                "wType": "Button"
            }
        },
        "btnThree": {
            "__events__": {
                "ide_onClick": "AS_Button_h286c43696d04f52ba3b11c173a60b4f"
            },
            "__info__": {
                "kuid": "f0bb0b30c65248b8a1d875fd9d025d7b",
                "srcKUID": "c7f1f86323564276a2ac661e20d3346b",
                "wType": "Button"
            }
        },
        "btnTwo": {
            "__events__": {
                "ide_onClick": "AS_Button_d8bdc816124a4c73810dd852e2552b90"
            },
            "__info__": {
                "kuid": "bf33f64ef8284fb5aff600ff58b3b81c",
                "srcKUID": "bee055e04cd748889d7e4e5d55711b99",
                "wType": "Button"
            }
        },
        "btnZero": {
            "__events__": {
                "ide_onClick": "AS_Button_je50201fc8e348f28c4f4df881076c18"
            },
            "__info__": {
                "kuid": "f71d187b27384e65a03fa113d64d081f",
                "srcKUID": "j97f81f4b7a74e3285af5c3e347d0268",
                "wType": "Button"
            }
        },
        "flxKeypad": {
            "__events__": {},
            "__info__": {
                "kuid": "jf2a5144ef14461bb09fe52aba018d17",
                "srcKUID": "e310ca7649394dec9fac0a0d54e6d958",
                "wType": "FlexContainer"
            }
        },
        "flxKeypadRowFour": {
            "__events__": {},
            "__info__": {
                "kuid": "g8a7a8c60c3045649357c9c3da949c11",
                "srcKUID": "e6ec914152c244119a63b0eb0d3d247a",
                "wType": "FlexContainer"
            }
        },
        "flxKeypadRowOne": {
            "__events__": {},
            "__info__": {
                "kuid": "a773635c588c4c159df144d1222a8765",
                "srcKUID": "d7ca7ee802334c53828a96cb296bbae6",
                "wType": "FlexContainer"
            }
        },
        "flxKeypadRowThree": {
            "__events__": {},
            "__info__": {
                "kuid": "gfd5b64571544d0b891569f3e0e279ff",
                "srcKUID": "d776f247970b4221960eb882441606b4",
                "wType": "FlexContainer"
            }
        },
        "flxKeypadRowTwo": {
            "__events__": {},
            "__info__": {
                "kuid": "g66929c16662449b9126fd42c3c22544",
                "srcKUID": "a2df5cb0b828424cad5f85477e9709ae",
                "wType": "FlexContainer"
            }
        },
        "flxShadowTwo": {
            "__events__": {},
            "__info__": {
                "kuid": "i4d19e8a8bdd4751b4fc0fe492376de1",
                "srcKUID": "j214eaf9022f408a916080e26a1d7d59",
                "wType": "FlexContainer"
            }
        },
        "flxVerticalSeparatorOne": {
            "__events__": {},
            "__info__": {
                "kuid": "gc7403f125ac4d49855dd1ed71d86870",
                "srcKUID": "he09ff5f67b94f19b2e5bcf6e9cb3006",
                "wType": "FlexContainer"
            }
        },
        "flxVerticalSeparatorTwo": {
            "__events__": {},
            "__info__": {
                "kuid": "fd561dd28836450392b905267ebb9a91",
                "srcKUID": "f9c2e06945ab4d0299a131d6da1efd09",
                "wType": "FlexContainer"
            }
        },
        "imgClear": {
            "__events__": {},
            "__info__": {
                "kuid": "c9e33a37d1924a379e0f4e6dc16fd1b1",
                "srcKUID": "h5dde5ad7c964ebeb63e73f55211f8f1",
                "wType": "Image"
            }
        },
        "imgClearKeypad": {
            "__events__": {
                "ide_onTouchEnd": "AS_Image_b4b7bf19ad314be29ce6f421ded37a44"
            },
            "__info__": {
                "kuid": "b3a3545fd1f4465ab7b86c11690f026c",
                "srcKUID": "fb1f23e980324fd58192f6e8a7048f86",
                "wType": "Image"
            }
        },
        "keypad": {
            "__events__": {},
            "__info__": {
                "isRoot": true,
                "kuid": "bf0d1011146f4ce8ad04878b7b8008dd",
                "srcKUID": "b970cba84dad4560a017558d9119e7a5",
                "wType": "FlexContainer"
            }
        }
    },
    "id": "keypad",
    "info": null,
    "iscustomlayout": false,
    "isdatareferenced": false,
    "isvisible": true,
    "kuid": "jf5f992ed8954057b1df1bfa5f15f289",
    "layouttype": 2,
    "masterType": 0,
    "name": "kony.ui.UserWidgetInstance",
    "parent": "flxKeypad",
    "pf": "frmBillPayEnterAccNo",
    "retaincontentalignment": false,
    "retainflexpositionproperties": false,
    "sourceUserWidget": "b970cba84dad4560a017558d9119e7a5",
    "wType": "UserWidgetInstance"
}