{
    "@class": "com.kony.gen.viz.model.component.KVizButton",
    "DNDConfig": null,
    "__parentReadjusting__": false,
    "_height_": {
        "type": "string",
        "value": "40dp"
    },
    "_left_": {
        "type": "string",
        "value": "20dp"
    },
    "_margin_": [
        6,
        6,
        6,
        6
    ],
    "_padding_": [
        0,
        0,
        0,
        0
    ],
    "_right_": {
        "type": "string",
        "value": "20dp"
    },
    "_skin_": "s30d39ca8c744d388569c1d52d0824b6",
    "_text_": "CONTINUE",
    "_top_": {
        "type": "string",
        "value": "20dp"
    },
    "_width_": {
        "type": "string",
        "value": "88.50%"
    },
    "accessibilityconfig": {
        "a11yLabel": "CALL BANK"
    },
    "canUpdateUI": true,
    "centerx": {
        "type": "string",
        "value": "50%"
    },
    "containerweight": 100,
    "contentalignment": 5,
    "disabledSkins": {},
    "displaytext": true,
    "focusskin": "s1ba251bcd374b38a477c71e7d26bfd5",
    "id": "btnCallBankHL",
    "info": null,
    "iphone": {
        "psp": {
            "showProgressIndicator": false
        }
    },
    "isvisible": true,
    "kuid": "ab28bd1af4da468f93985227c287dfb8",
    "name": "kony.ui.Button",
    "parent": "flxContainerHomeLoan",
    "pf": "frmAccountInfo",
    "texti18n": "kony.mb.accdetails.callBank",
    "wType": "Button",
    "zindex": 1
}