{
    "DNDConfig": null,
    "__parentReadjusting__": false,
    "_height_": {
        "type": "string",
        "value": "50dp"
    },
    "_left_": {
        "type": "string",
        "value": "0dp"
    },
    "_margin_": [
        0,
        0,
        0,
        0
    ],
    "_orientation_": 6,
    "_padding_": [
        0,
        0,
        0,
        0
    ],
    "_percent_": true,
    "_skin_": "scc780d0e23b429d8785ff59321ae26b",
    "_top_": {
        "type": "string",
        "value": "0dp"
    },
    "_width_": {
        "type": "string",
        "value": "100%"
    },
    "allboxes": [],
    "autogrowmode": 0,
    "canUpdateUI": true,
    "children": [
        "lblIntDetails",
        "flxShadow1",
        "flxShadowBottomInfo1",
        "flxTypeOneShadowInfo3"
    ],
    "clipbounds": true,
    "containerweight": 100,
    "enablescrolling": true,
    "id": "flxIntDetails",
    "info": null,
    "iscustomlayout": false,
    "isvisible": true,
    "kuid": "dc3c33e2d2344392a9fd5364f00be98c",
    "layouttype": 2,
    "name": "kony.ui.FlexContainer",
    "parent": "flxContainerCheckingAcc",
    "pf": "frmAccountInfo",
    "retaincontentalignment": false,
    "retainflexpositionproperties": false,
    "snapgridsize": 10,
    "snaptogrid": true,
    "wType": "FlexContainer",
    "widgetalignment": 1,
    "zindex": 1
}