{
    "@class": "com.kony.gen.viz.model.component.KVizButton",
    "DNDConfig": null,
    "__parentReadjusting__": false,
    "_height_": {
        "type": "string",
        "value": "40dp"
    },
    "_left_": {
        "type": "string",
        "value": "0dp"
    },
    "_margin_": [
        6,
        6,
        6,
        6
    ],
    "_padding_": [
        0,
        0,
        0,
        0
    ],
    "_skin_": "s7e0442e558b44139cbb56994b882ea2",
    "_text_": "Learn More About Disposing of My Card",
    "_top_": {
        "type": "string",
        "value": "443dp"
    },
    "_width_": {
        "type": "string",
        "value": "70%"
    },
    "accessibilityconfig": {
        "a11yHint": "Tap Resend to resend the information",
        "a11yLabel": "Resend"
    },
    "canUpdateUI": true,
    "centerx": {
        "type": "string",
        "value": "50%"
    },
    "containerweight": 100,
    "contentalignment": 5,
    "disabledSkins": {},
    "displaytext": true,
    "focusskin": "s7e0442e558b44139cbb56994b882ea2",
    "id": "btnDisposeCard",
    "info": null,
    "iphone": {
        "psp": {
            "showProgressIndicator": false
        }
    },
    "isvisible": true,
    "kuid": "g9c116af8a2d4f00b80d57bbe16c3a80",
    "name": "kony.ui.Button",
    "parent": "flxReplaceCardSuccess",
    "pf": "frmCardManageAck",
    "wType": "Button",
    "zindex": 1
}