{
    "@class": "com.kony.gen.viz.model.component.KVizButton",
    "DNDConfig": null,
    "__parentReadjusting__": false,
    "_height_": {
        "type": "string",
        "value": "50dp"
    },
    "_margin_": [
        6,
        6,
        6,
        6
    ],
    "_padding_": [
        0,
        0,
        0,
        0
    ],
    "_right_": {
        "type": "string",
        "value": "9%"
    },
    "_skin_": "s3ab10e73bc24d3687ec37d64d30f97c",
    "_text_": "9",
    "_top_": {
        "type": "string",
        "value": "48%"
    },
    "_width_": {
        "type": "string",
        "value": "50dp"
    },
    "accessibilityconfig": {
        "a11yLabel": "9"
    },
    "android": {
        "psp": {
            "pressedSkin": "s588aab0c446456cbb2fb4621e70e907"
        }
    },
    "canUpdateUI": true,
    "containerweight": 100,
    "contentalignment": 5,
    "disabledSkins": {},
    "displaytext": true,
    "focusskin": "s588aab0c446456cbb2fb4621e70e907",
    "id": "btnNine",
    "info": null,
    "iphone": {
        "psp": {
            "showProgressIndicator": false
        }
    },
    "isvisible": true,
    "kuid": "ad11b195f9534f8ab1e2fc7857dda706",
    "name": "kony.ui.Button",
    "parent": "flxDialPad",
    "pf": "userwidgetmodel",
    "wType": "Button",
    "zindex": 1
}