{
    "@class": "com.kony.gen.viz.model.component.KVizLabel",
    "DNDConfig": null,
    "__parentReadjusting__": false,
    "_height_": {
        "type": "ref",
        "value": "preferred"
    },
    "_margin_": [
        1,
        1,
        1,
        1
    ],
    "_padding_": [
        0,
        0,
        0,
        0
    ],
    "_skin_": "s509a27b2e7a4b26b0e0f15b000882aa",
    "_text_": "Future",
    "_width_": {
        "type": "ref",
        "value": "preferred"
    },
    "_wrapping_": 2,
    "accessibilityconfig": {
        "a11yLabel": "Account Nick Name"
    },
    "android": {
        "bottom": {
            "type": "string",
            "value": ""
        },
        "centerX": {
            "type": "string",
            "value": ""
        },
        "centerY": {
            "type": "string",
            "value": "50%"
        },
        "maxHeight": "",
        "maxWidth": "",
        "minHeight": "",
        "minWidth": "",
        "padding": [
            0,
            0,
            0,
            0
        ],
        "paddingInPixel": false,
        "right": {
            "type": "string",
            "value": "10dp"
        },
        "textStyle": {
            "letterSpacing": 0,
            "strikeThrough": false
        },
        "zIndex": 1
    },
    "canUpdateUI": true,
    "centery": {
        "type": "string",
        "value": "50%"
    },
    "containerweight": 100,
    "contentalignment": 4,
    "id": "lblFuturePays",
    "info": null,
    "ipad": {
        "psp": {
            "wrapping": 2
        }
    },
    "iphone": {
        "psp": {
            "wrapping": 2
        }
    },
    "isvisible": true,
    "kuid": "h0a3729b1bec4338b80e24751c828d48",
    "name": "kony.ui.Label",
    "paddinginpixel": false,
    "parent": "flxOverdue",
    "pf": "frmLoanSchedule",
    "textstyle": {},
    "tooltip": "",
    "wType": "Label",
    "zindex": 1
}