{
    "@class": "com.kony.gen.viz.model.container.KVizSegment2",
    "DNDConfig": null,
    "__parentReadjusting__": false,
    "_data_": [
        {
            "lblStatementMonth": {
                "@class": "com.viz.ide.model.segment.SimpleTextSegmentData",
                "text": "January 2018"
            }
        },
        {
            "lblStatementMonth": {
                "@class": "com.viz.ide.model.segment.SimpleTextSegmentData",
                "text": "February 2018"
            }
        },
        {
            "lblStatementMonth": {
                "@class": "com.viz.ide.model.segment.SimpleTextSegmentData",
                "text": "March 2018"
            }
        },
        {
            "lblStatementMonth": {
                "@class": "com.viz.ide.model.segment.SimpleTextSegmentData",
                "text": "April 2018"
            }
        },
        {
            "lblStatementMonth": {
                "@class": "com.viz.ide.model.segment.SimpleTextSegmentData",
                "text": "May 2018"
            }
        },
        {
            "lblStatementMonth": {
                "@class": "com.viz.ide.model.segment.SimpleTextSegmentData",
                "text": "June 2018"
            }
        },
        {
            "lblStatementMonth": {
                "@class": "com.viz.ide.model.segment.SimpleTextSegmentData",
                "text": "July 2018"
            }
        }
    ],
    "_height_": {
        "type": "ref",
        "value": "preferred"
    },
    "_indicator_": "none",
    "_left_": {
        "type": "string",
        "value": "0dp"
    },
    "_margin_": [
        0,
        0,
        0,
        0
    ],
    "_orientation_": 2,
    "_padding_": [
        0,
        0,
        0,
        0
    ],
    "_top_": {
        "type": "string",
        "value": "5dp"
    },
    "_width_": {
        "type": "string",
        "value": "100%"
    },
    "autogrowmode": 1,
    "canUpdateUI": true,
    "containerweight": 100,
    "counter": "06",
    "focusedindex": null,
    "focuseditem": null,
    "groupcells": false,
    "hasSections": false,
    "id": "segStatements",
    "info": null,
    "ipad": {
        "psp": {
            "indicator": "rowselect"
        }
    },
    "iphone": {
        "psp": {
            "indicator": "none"
        }
    },
    "iscustomlayout": false,
    "isvisible": false,
    "kuid": "fc63d87e68d9472ca9f613312696a464",
    "masterdata": {},
    "name": "kony.ui.SegmentedUI2",
    "needpageindicator": true,
    "pageoffdotimage": "pageoffdot.png",
    "pageondotimage": "pageondot.png",
    "paginationconfig": {
        "position": "bottom"
    },
    "parent": "flxSegStatements",
    "pf": "frmAccStatements",
    "retaincontentalignment": false,
    "retainflexpositionproperties": false,
    "retainselection": false,
    "rowTemplateId": "dca5086c7bd44f76ad9460c8fdeff09d",
    "rowcounter": 6,
    "rowfocusskin": "s02d7ca459a74168b4573e79b9d8efec",
    "rowskin": "s18472307db04580a2a9cb6f4681ebec",
    "rowtemplate": "flxStatements",
    "screenlevelwidget": false,
    "seccounter": 0,
    "sectionheaderskin": "s65e8b0a8be54624ac979cda71a22cac",
    "selectedRows": null,
    "selectedState": false,
    "selectedindex": null,
    "selectedindices": null,
    "selecteditems": null,
    "selectedsectionindex": 0,
    "selectionbehavior": "default",
    "separatorrequired": false,
    "separatorthickness": 0,
    "showscrollbars": false,
    "viewtype": "tableview",
    "vizProps": {},
    "wType": "Segment",
    "widgetalignment": 5,
    "widgetdatamap": {
        "flxSeprator": "flxSeprator",
        "flxStatements": "flxStatements",
        "lblStatementMonth": "lblStatementMonth"
    },
    "zindex": 100
}