{
    "AS_Button_ccbeb491bfb447b892b8573f2bf65a46": {
        "id": "AS_Button_ccbeb491bfb447b892b8573f2bf65a46",
        "type": "ACTION_SEQUENCE",
        "params": [{
            "datatype": "collection",
            "name": "eventobject"
        }],
        "contextObj": {
            "name": "uw8267095617db4db28977d7bec882be33",
            "type": "userwidgets",
            "KUID": "8267095617db4db28977d7bec882be33"
        },
        "language": "js",
        "actions": [{
            "id": "ADD_SNIPPET__j4f85c9c6e3e455f9dd31ebeb30cbb6c",
            "type": "ADD_SNIPPET",
            "codeSnippet": "this.option7Clicked();",
            "parentId": null,
            "callbackType": null
        }]
    }
}