{
    "@class": "com.kony.gen.viz.model.component.KVizButton",
    "DNDConfig": null,
    "__parentReadjusting__": false,
    "_bottom_": {
        "type": "string",
        "value": "20dp"
    },
    "_height_": {
        "type": "string",
        "value": "40dp"
    },
    "_left_": {
        "type": "string",
        "value": "20dp"
    },
    "_margin_": [
        6,
        6,
        6,
        6
    ],
    "_padding_": [
        0,
        0,
        0,
        0
    ],
    "_right_": {
        "type": "string",
        "value": "20dp"
    },
    "_skin_": "s5c56a9302c04f598b5208bf315c4e14",
    "_text_": "CONTINUE",
    "accessibilityconfig": {
        "a11yHint": "Tap Continue to move to the next screen",
        "a11yLabel": "Continue"
    },
    "canUpdateUI": true,
    "containerweight": 100,
    "contentalignment": 5,
    "disabledSkins": {},
    "displaytext": true,
    "focusskin": "s1ba251bcd374b38a477c71e7d26bfd5",
    "id": "btnContinue",
    "info": null,
    "iphone": {
        "psp": {
            "showProgressIndicator": false
        }
    },
    "isvisible": true,
    "kuid": "da948a7cd4d8437480dfd6a42d8ef7d0",
    "name": "kony.ui.Button",
    "parent": "flxMain",
    "pf": "frmBillPayReEnterAccNo",
    "texti18n": "kony.mb.common.continue",
    "wType": "Button",
    "zindex": 1
}