{
    "@class": "com.kony.gen.viz.model.component.KVizLabel",
    "DNDConfig": null,
    "__parentReadjusting__": false,
    "_height_": {
        "type": "string",
        "value": "100%"
    },
    "_left_": {
        "type": "string",
        "value": "3dp"
    },
    "_margin_": [
        1,
        1,
        1,
        1
    ],
    "_padding_": [
        0,
        0,
        0,
        0
    ],
    "_skin_": "sc675a0483c1438ca724b08c9c5b5412",
    "_text_": "_",
    "_top_": {
        "type": "string",
        "value": "0dp"
    },
    "_width_": {
        "type": "string",
        "value": "4%"
    },
    "_wrapping_": 2,
    "accessibilityconfig": {
        "a11yLabel": "_"
    },
    "android": {
        "textStyle": {
            "letterSpacing": 0,
            "strikeThrough": false
        }
    },
    "canUpdateUI": true,
    "containerweight": 100,
    "contentalignment": 4,
    "id": "lblDigit2",
    "info": null,
    "ipad": {
        "psp": {
            "wrapping": 2
        }
    },
    "iphone": {
        "psp": {
            "wrapping": 2
        }
    },
    "isvisible": false,
    "kuid": "c00f9463738743578c7aa07f1b4ccfda",
    "name": "kony.ui.Label",
    "parent": "flxReInputAccNo",
    "pf": "frmBillPayReEnterAccNo",
    "textstyle": {},
    "tooltip": "",
    "wType": "Label",
    "zindex": 1
}