{
    "ModuleName": "EngageManager",
    "BusinessControllerConfig": {
        "CommandHandler": [],
        "BusinessControllerClass": "EngageManager/BusinessControllers/BusinessController"
    },
    "PresentationControllerConfig": {
        "Default": {
            "PresentationControllerClass": "EngageManager/PresentationControllers/PresentationController",
            "PresentationExtensions": []
        }
    }
}