{
    "DNDConfig": null,
    "__parentReadjusting__": false,
    "_height_": {
        "type": "ref",
        "value": "preferred"
    },
    "_left_": {
        "type": "string",
        "value": "52dp"
    },
    "_margin_": [
        0,
        0,
        0,
        0
    ],
    "_orientation_": 6,
    "_padding_": [
        0,
        0,
        0,
        0
    ],
    "_percent_": true,
    "_skin_": "s966eaf1ea1441148b4828270a782f8b",
    "_top_": {
        "type": "string",
        "value": "175dp"
    },
    "_width_": {
        "type": "string",
        "value": "312dp"
    },
    "allboxes": [],
    "autogrowmode": 1,
    "canUpdateUI": true,
    "children": [
        "flxInfoSuccessNonTransaction",
        "imgSuccess"
    ],
    "clipbounds": true,
    "containerweight": 100,
    "enablescrolling": true,
    "id": "flxContainerSuccessNonTransaction",
    "info": null,
    "iscustomlayout": false,
    "isvisible": true,
    "kuid": "id1d64b85fb142a290ab863e2ff4d0aa",
    "layouttype": 2,
    "name": "kony.ui.FlexContainer",
    "parent": "flxSuccessNonTransaction",
    "pf": "frmAcknowledgement",
    "retaincontentalignment": false,
    "retainflexpositionproperties": false,
    "retainflowhorizontalalignment": false,
    "snapgridsize": 10,
    "snaptogrid": true,
    "wType": "FlexContainer",
    "widgetalignment": 1
}