{
    "@class": "com.kony.gen.viz.model.component.KVizUserWidget",
    "DNDConfig": null,
    "__parentReadjusting__": false,
    "_children_": [],
    "_height_": {
        "type": "string",
        "value": "40dp"
    },
    "_left_": {
        "type": "string",
        "value": "0dp"
    },
    "_margin_": [
        0,
        0,
        0,
        0
    ],
    "_orientation_": 1,
    "_padding_": [
        0,
        0,
        0,
        0
    ],
    "_percent_": true,
    "_render_": true,
    "_skin_": "s966eaf1ea1441148b4828270a782f8b",
    "_top_": {
        "type": "string",
        "value": "0dp"
    },
    "_width_": {
        "type": "string",
        "value": "100%"
    },
    "areflexpropsreferenced": false,
    "canUpdateUI": true,
    "clipbounds": false,
    "containerweight": 100,
    "dataDiffs": {
        "btnCancel": {
            "__events__": {},
            "__info__": {
                "kuid": "fa232aad5f01427fb0340dd91961a182",
                "srcKUID": "cf0f0a7a19664002a53a1f77e7082c6c",
                "wType": "Button"
            }
        },
        "customSearchbox": {
            "__events__": {},
            "__info__": {
                "isRoot": true,
                "kuid": "a7066a6d824b4fa8ab4d88db7baf3b27",
                "srcKUID": "f1b1b5e40a58453ab9a1b4f121e4f4eb",
                "wType": "FlexContainer"
            }
        },
        "flxHeaderShadow": {
            "__events__": {},
            "__info__": {
                "kuid": "c14292a721544812ab5a636931d58a0a",
                "srcKUID": "f2d9c4a6a40143d8810c778f5f634853",
                "wType": "FlexContainer"
            }
        },
        "flxSearch": {
            "__events__": {},
            "__info__": {
                "kuid": "j65dc1936efa471ebf2b0514e1097ded",
                "srcKUID": "b3770ab32332447ab59176519234cee8",
                "wType": "FlexContainer"
            }
        },
        "flxSearchMain": {
            "__events__": {},
            "__info__": {
                "kuid": "df58698a811942a7a48a39fe55ac5093",
                "srcKUID": "db20269d51344928b8ba8a9b29d0741f",
                "wType": "FlexContainer"
            }
        },
        "imgSearch": {
            "__events__": {},
            "__info__": {
                "kuid": "g4fa2f1d0cd348dbb789bea3423b5ecf",
                "srcKUID": "f9d61cc007354263ab63d0c7a742aa41",
                "wType": "Image"
            }
        },
        "imgSearchIcon": {
            "__events__": {},
            "__info__": {
                "kuid": "i10b669b476b49838c5b920dd3c4ab2e",
                "srcKUID": "j657ec465367414995d83c0c48f49c43",
                "wType": "Image"
            },
            "src": "search.png"
        },
        "tbxSearch": {
            "__events__": {},
            "__info__": {
                "kuid": "g9c05ce448504528a5c745b6041154fe",
                "srcKUID": "b9d79b6a7ddf4527a22a3e3cc610c0f5",
                "wType": "TextField"
            }
        }
    },
    "id": "customSearchbox",
    "info": null,
    "iscustomlayout": false,
    "isdatareferenced": false,
    "isvisible": true,
    "kuid": "a7066a6d824b4fa8ab4d88db7baf3b27",
    "layouttype": 2,
    "masterType": 0,
    "name": "kony.ui.UserWidgetInstance",
    "parent": "flxHeaderSearchAddress",
    "pf": "frmBenAddressEurope",
    "retaincontentalignment": false,
    "retainflexpositionproperties": false,
    "snaptogrid": true,
    "sourceUserWidget": "f1b1b5e40a58453ab9a1b4f121e4f4eb",
    "wType": "UserWidgetInstance"
}