{
    "@class": "com.kony.gen.viz.model.component.KVizTextBox2",
    "DNDConfig": null,
    "__parentReadjusting__": false,
    "_height_": {
        "type": "string",
        "value": "40dp"
    },
    "_left_": {
        "type": "string",
        "value": "20dp"
    },
    "_margin_": [
        0,
        0,
        0,
        0
    ],
    "_padding_": [
        10,
        3,
        1,
        3
    ],
    "_placeholder_": "Enter username here",
    "_right_": {
        "type": "string",
        "value": "20dp"
    },
    "_skin_": "s29931801e854e65bd09be3501012367",
    "_text_": "",
    "_top_": {
        "type": "string",
        "value": "0dp"
    },
    "accessibilityconfig": {
        "a11yLabel": "Enter username here"
    },
    "android": {
        "padding": [
            10,
            3,
            1,
            3
        ],
        "paddingInPixel": true
    },
    "autocapitalize": "none",
    "autocomplete": false,
    "autocorrect": false,
    "autofilter": false,
    "canUpdateUI": true,
    "containerheight": "",
    "containerheightmode": 1,
    "containerweight": 100,
    "contentalignment": 4,
    "focusskin": "s2688670ed0f4789900f7368aeda469c",
    "id": "txtBankName",
    "info": null,
    "iphone": {
        "padding": [
            10,
            3,
            1,
            3
        ],
        "paddingInPixel": true,
        "psp": {
            "showClearButton": false,
            "showCloseButton": false
        }
    },
    "isvisible": true,
    "keyboardtype": "A",
    "kuid": "cab1f35ab55a4861b1871ea2a3fe5797",
    "maxtextlength": "",
    "mode": "A",
    "name": "kony.ui.TextBox2",
    "paddinginpixel": false,
    "parent": "flxBankName",
    "pf": "frmTransferEuropeSearchSwiftCode",
    "placeholderi18n": "kony.mb.common.EnterHere",
    "placeholderskin": "s1bcf8b78d1649a9a56fc498f08472f8",
    "securetextentry": false,
    "showclearbutton": true,
    "textinputmode": "A",
    "tooltip": "",
    "viewtype": "default",
    "wType": "TextField",
    "zindex": 1
}