{
    "BusinessControllerConfig": {
        "CommandHandler": [],
        "BusinessControllerClass": "WealthModule/BusinessControllers/BusinessController"
    },
    "PresentationControllerConfig": {
        "Default": {
            "PresentationExtensions": [],
            "PresentationControllerClass": "WealthModule/PresentationControllers/PresentationController"
        }
    },
    "Forms": {
        "mobile": {
            "frmDummy": {
                "ControllerExtensions": [],
                "FormController": "kony.mvc.MDAFormController",
                "Controller": "WealthModule/frmDummyController",
                "FormName": "WealthModule/frmDummy"
            }
        }
    },
    "ModuleName": "WealthModule"
}