{
    "AS_Button_j939fd4848ed423d8ec91ff26470379b": {
        "id": "AS_Button_j939fd4848ed423d8ec91ff26470379b",
        "type": "ACTION_SEQUENCE",
        "params": [{
            "datatype": "collection",
            "name": "eventobject"
        }],
        "contextObj": {
            "name": "CopyfrmGoalfundAmount",
            "type": "forms",
            "platform": null,
            "KUID": "e3e9161896e14650a7267e5612929539"
        },
        "language": "js",
        "actions": [{
            "id": "ADD_SNIPPET_ide_onClick_e97fe11d9ca74a5a8e590e77cd8e2fc8",
            "type": "ADD_SNIPPET",
            "codeSnippet": "this.setKeypadChar(5);",
            "callbackType": null
        }]
    }
}