{
    "AS_Button_b04bc6b3c2744ffaae33414eaa58587d": {
        "id": "AS_Button_b04bc6b3c2744ffaae33414eaa58587d",
        "type": "ACTION_SEQUENCE",
        "params": [{
            "datatype": "collection",
            "name": "eventobject"
        }],
        "contextObj": {
            "name": "CopyfrmBudgetfundAmount",
            "type": "forms",
            "platform": null,
            "KUID": "aa41c85b03db4a13854914cd74790227"
        },
        "language": "js",
        "actions": [{
            "id": "ADD_SNIPPET_ide_onClick_c030974c35ab4d299f8abbaa7abd65de",
            "type": "ADD_SNIPPET",
            "codeSnippet": "this.setKeypadChar(0);",
            "callbackType": null
        }]
    }
}