{
    "AS_Button_c1f7024068374a2c9e6f9a5f60b115ab": {
        "id": "AS_Button_c1f7024068374a2c9e6f9a5f60b115ab",
        "type": "ACTION_SEQUENCE",
        "params": [{
            "datatype": "collection",
            "name": "eventobject"
        }],
        "contextObj": {
            "name": "CopyfrmPreferencesResetStep3",
            "type": "forms",
            "platform": null,
            "KUID": "ec984773becc4c34ac07bb248a6c6085"
        },
        "language": "js",
        "actions": [{
            "id": "ADD_SNIPPET_ide_onClick_gbc9cb1e444e4721b71a6ae58bb7a7a8",
            "type": "ADD_SNIPPET",
            "codeSnippet": "this.setKeypadChar(3);",
            "callbackType": null
        }]
    }
}