{
    "AS_Button_f1bd99dd5ad9474384a77fba93e9dc0f": {
        "id": "AS_Button_f1bd99dd5ad9474384a77fba93e9dc0f",
        "type": "ACTION_SEQUENCE",
        "params": [{
            "datatype": "collection",
            "name": "eventobject"
        }],
        "contextObj": {
            "name": "CopyfrmGoalfundAmount",
            "type": "forms",
            "platform": null,
            "KUID": "fea040cd4a714d209c71890e2a642fb9"
        },
        "language": "js",
        "actions": [{
            "id": "ADD_SNIPPET_ide_onClick_a23a2cd85c47404ebb5382a479aee391",
            "type": "ADD_SNIPPET",
            "codeSnippet": "this.setKeypadChar(3);",
            "callbackType": null
        }]
    }
}