{
    "AS_Button_c7c86a1899eb4ec98929364051fc959f": {
        "id": "AS_Button_c7c86a1899eb4ec98929364051fc959f",
        "type": "ACTION_SEQUENCE",
        "params": [{
            "datatype": "collection",
            "name": "eventobject"
        }],
        "contextObj": {
            "name": "CopyfrmOptimizeGoal",
            "type": "forms",
            "platform": null,
            "KUID": "g58b4112139443f4a57df6baf62e25e8"
        },
        "language": "js",
        "actions": [{
            "id": "ADD_SNIPPET_ide_onClick_g09fc26bdd6c40ffb46ac563f24d357b",
            "type": "ADD_SNIPPET",
            "codeSnippet": "this.setKeypadChar('.');",
            "callbackType": null
        }]
    }
}