{
    "AS_Button_b050129e4c9e40ba9fbc80271dca25bc": {
        "id": "AS_Button_b050129e4c9e40ba9fbc80271dca25bc",
        "type": "ACTION_SEQUENCE",
        "params": [{
            "datatype": "collection",
            "name": "eventobject"
        }],
        "contextObj": {
            "name": "CopyfrmGoalfundAmount",
            "type": "forms",
            "platform": null,
            "KUID": "fea040cd4a714d209c71890e2a642fb9"
        },
        "language": "js",
        "actions": [{
            "id": "ADD_SNIPPET_ide_onClick_c27998ab53034747a6ccf1fa05b9f8e7",
            "type": "ADD_SNIPPET",
            "codeSnippet": "this.setKeypadChar(5);",
            "callbackType": null
        }]
    }
}