{
    "AS_Form_f9157afab95f4ba98bfea61d6fabd276": {
        "id": "AS_Form_f9157afab95f4ba98bfea61d6fabd276",
        "type": "ACTION_SEQUENCE",
        "params": [{
            "datatype": "collection",
            "name": "eventobject"
        }],
        "contextObj": {
            "name": "CopyfrmOBResidentialAddress",
            "type": "forms",
            "platform": null,
            "KUID": "ba18e653419b4d86b740321a379ef826"
        },
        "language": "js",
        "actions": [{
            "id": "ADD_SNIPPET_ide_preShow_i8045c8e3f394f518d2ae2513b8f2643",
            "type": "ADD_SNIPPET",
            "codeSnippet": "this.preShow();",
            "callbackType": null
        }]
    }
}