{
    "AS_Form_c1661cf1f6b549de86057e25378d9b05": {
        "id": "AS_Form_c1661cf1f6b549de86057e25378d9b05",
        "type": "ACTION_SEQUENCE",
        "params": [{
            "datatype": "collection",
            "name": "eventobject"
        }],
        "contextObj": {
            "name": "CopyfrmCreateBudgetVerifyDetails",
            "type": "forms",
            "platform": null,
            "KUID": "b46331bec2644b91ac4241181315e63c"
        },
        "language": "js",
        "actions": [{
            "id": "ADD_SNIPPET_ide_init_g1cae99c257d404c9ccb352a0c6767c7",
            "type": "ADD_SNIPPET",
            "codeSnippet": "this.init();"
        }]
    }
}