{
    "AS_Form_a7b01bb15bbc42109107aaf857c48797": {
        "id": "AS_Form_a7b01bb15bbc42109107aaf857c48797",
        "type": "ACTION_SEQUENCE",
        "params": [{
            "datatype": "collection",
            "name": "eventobject"
        }],
        "contextObj": {
            "name": "CopyfrmBudgetfundAmount",
            "type": "forms",
            "platform": null,
            "KUID": "ia3fe8faa68d4b5b9a388469875e332c"
        },
        "language": "js",
        "actions": [{
            "id": "ADD_SNIPPET_ide_preShow_fc347ab6780d4b4798651d47f3eed6f8",
            "type": "ADD_SNIPPET",
            "codeSnippet": "this.preShow();"
        }]
    }
}