{
    "AS_Form_ba20f6a226614b89b83d683b4f253ebd": {
        "id": "AS_Form_ba20f6a226614b89b83d683b4f253ebd",
        "type": "ACTION_SEQUENCE",
        "params": [{
            "datatype": "collection",
            "name": "eventobject"
        }],
        "contextObj": {
            "name": "CopyfrmBudgetfundAmount",
            "type": "forms",
            "platform": null,
            "KUID": "aa41c85b03db4a13854914cd74790227"
        },
        "language": "js",
        "actions": [{
            "id": "ADD_SNIPPET_ide_init_b54132c5357e4b01b068e8608e0a6799",
            "type": "ADD_SNIPPET",
            "codeSnippet": "this.init();"
        }]
    }
}