{
    "AS_Form_c8d0e5c0d3004220bc2be77d2ed412ac": {
        "id": "AS_Form_c8d0e5c0d3004220bc2be77d2ed412ac",
        "type": "ACTION_SEQUENCE",
        "params": [{
            "datatype": "collection",
            "name": "eventobject"
        }],
        "contextObj": {
            "name": "CopyfrmNAOSelectProduct",
            "type": "forms",
            "platform": null,
            "KUID": "b67745d6f00442db952689d460ca8df8"
        },
        "language": "js",
        "actions": [{
            "id": "ADD_SNIPPET_ide_preShow_d310ef8615c74d2792e1d4154973ef13",
            "type": "ADD_SNIPPET",
            "codeSnippet": "this.preShow();",
            "callbackType": null
        }]
    }
}