{
    "AS_Form_i6021dc8e4b04b3aa2bebf6a29e1f060": {
        "id": "AS_Form_i6021dc8e4b04b3aa2bebf6a29e1f060",
        "type": "ACTION_SEQUENCE",
        "params": [{
            "datatype": "collection",
            "name": "eventobject"
        }],
        "contextObj": {
            "name": "CopyfrmManageNewCardName",
            "type": "forms",
            "platform": null,
            "KUID": "f7a33e23d27e4fb3b35dc6593a6fbc00"
        },
        "language": "js",
        "actions": [{
            "id": "ADD_SNIPPET_ide_preShow_ef34190e69124822871cf54451d54c3b",
            "type": "ADD_SNIPPET",
            "codeSnippet": "this.preShow();",
            "callbackType": null
        }]
    }
}