{
    "AS_Form_ad79d6029fe842299b0cb03b66285d7a": {
        "id": "AS_Form_ad79d6029fe842299b0cb03b66285d7a",
        "type": "ACTION_SEQUENCE",
        "params": [{
            "datatype": "collection",
            "name": "eventobject"
        }],
        "contextObj": {
            "name": "CopyfrmChequeNumber",
            "type": "forms",
            "platform": null,
            "KUID": "hdfa0e31fbb74bcda1c1584f3b322d7d"
        },
        "language": "js",
        "actions": [{
            "id": "INVOKE_FUNCTION__ide_postShow_jd0c0abf9c3c4d38a373d3edf06321fe",
            "type": "INVOKE_FUNCTION",
            "sequenceKUID": "postShow",
            "display": "postShow",
            "inputparams": [],
            "callbackType": null,
            "disabled": null,
            "source": "controller"
        }]
    }
}