{
    "AS_Form_g317f29829e44f9eafd7c8b076455862": {
        "id": "AS_Form_g317f29829e44f9eafd7c8b076455862",
        "type": "ACTION_SEQUENCE",
        "params": [{
            "datatype": "collection",
            "name": "eventobject"
        }],
        "contextObj": {
            "name": "CopyfrmMMReview",
            "type": "forms",
            "platform": null,
            "KUID": "c0dacdd69fb1492a8179b65e2a543553"
        },
        "language": "js",
        "actions": [{
            "id": "ADD_SNIPPET_ide_init_g81b632f7e3c4569a7e5641add4120b9",
            "type": "ADD_SNIPPET",
            "codeSnippet": "this.init();",
            "callbackType": null
        }]
    }
}