{
    "AS_Form_d4e307bd24304dad8dc1d88e8295c8a7": {
        "id": "AS_Form_d4e307bd24304dad8dc1d88e8295c8a7",
        "type": "ACTION_SEQUENCE",
        "params": [{
            "datatype": "collection",
            "name": "eventobject"
        }],
        "contextObj": {
            "name": "CopyfrmGoalfundverifyDetails",
            "type": "forms",
            "platform": null,
            "KUID": "ha294807df5a4f40a1f85f13996f4919"
        },
        "language": "js",
        "actions": [{
            "id": "ADD_SNIPPET_ide_init_ga07caf0128441e38b26349886e519f4",
            "type": "ADD_SNIPPET",
            "codeSnippet": "this.init();"
        }]
    }
}