{
    "AS_Form_d3e510fa732c48f487d828b51d534037": {
        "id": "AS_Form_d3e510fa732c48f487d828b51d534037",
        "type": "ACTION_SEQUENCE",
        "params": [{
            "datatype": "collection",
            "name": "eventobject"
        }],
        "contextObj": {
            "name": "CopyfrmSavingsVerifyDetails",
            "type": "forms",
            "platform": null,
            "KUID": "a6d0ef399210407f91d0d4460f1e2f99"
        },
        "language": "js",
        "actions": [{
            "id": "ADD_SNIPPET_ide_preShow_i58bf94cd51e489cae62b0415e20950d",
            "type": "ADD_SNIPPET",
            "codeSnippet": "this.preshow();"
        }]
    }
}