{
    "AS_Form_c10a908a021a4f119e9a0b4d6d4d3eee": {
        "id": "AS_Form_c10a908a021a4f119e9a0b4d6d4d3eee",
        "type": "ACTION_SEQUENCE",
        "params": [{
            "datatype": "collection",
            "name": "eventobject"
        }],
        "contextObj": {
            "name": "CopyfrmVerifyDetails",
            "type": "forms",
            "platform": null,
            "KUID": "f68a88aea1e943ef94b34d2cf4b67d45"
        },
        "language": "js",
        "actions": [{
            "id": "ADD_SNIPPET_ide_preShow_d9eec875537f4a86812fc09e32a21e1b",
            "type": "ADD_SNIPPET",
            "codeSnippet": "this.preshow();"
        }]
    }
}