{
    "AS_Form_aaa63c106ce04e3ea98777001374759d": {
        "id": "AS_Form_aaa63c106ce04e3ea98777001374759d",
        "type": "ACTION_SEQUENCE",
        "params": [{
            "datatype": "collection",
            "name": "eventobject"
        }],
        "contextObj": {
            "name": "CopyfrmTransfersManageRecipientList",
            "type": "forms",
            "platform": null,
            "KUID": "de42b79326ea46d9a3440a538282071c"
        },
        "language": "js",
        "actions": [{
            "id": "ADD_SNIPPET_ide_init_dd19af7008ce4aa699e53be053043773",
            "type": "ADD_SNIPPET",
            "codeSnippet": "this.init();",
            "callbackType": null
        }]
    }
}