{
    "AS_Form_d27cd2348a2b48b0a057d2e8aa6ae817": {
        "id": "AS_Form_d27cd2348a2b48b0a057d2e8aa6ae817",
        "type": "ACTION_SEQUENCE",
        "params": [{
            "datatype": "collection",
            "name": "eventobject"
        }],
        "contextObj": {
            "name": "CopyfrmSavingsVerifyDetails",
            "type": "forms",
            "platform": null,
            "KUID": "a2c9a662391048d3933d2109c879a765"
        },
        "language": "js",
        "actions": [{
            "id": "ADD_SNIPPET_ide_init_d8209bcb3f88416aa8cf8090cba1c952",
            "type": "ADD_SNIPPET",
            "codeSnippet": "this.init();"
        }]
    }
}