{
    "AS_Form_hb9ed395a1f94853ba4500586ae56eac": {
        "id": "AS_Form_hb9ed395a1f94853ba4500586ae56eac",
        "type": "ACTION_SEQUENCE",
        "params": [{
            "datatype": "collection",
            "name": "eventobject"
        }],
        "contextObj": {
            "name": "CopyfrmGoalFundAck",
            "type": "forms",
            "platform": null,
            "KUID": "d75c79a8c0f7450ba9cb5a8ce5a1af0d"
        },
        "language": "js",
        "actions": [{
            "id": "ADD_SNIPPET_ide_preShow_f0c35549147d440fab28ef98c98b0788",
            "type": "ADD_SNIPPET",
            "codeSnippet": "this.preShow();"
        }]
    }
}