{
    "AS_Form_e22a5925150646dca70020d76b85483b": {
        "id": "AS_Form_e22a5925150646dca70020d76b85483b",
        "type": "ACTION_SEQUENCE",
        "params": [{
            "datatype": "collection",
            "name": "eventobject"
        }],
        "contextObj": {
            "name": "CopyfrmVerifyDetails",
            "type": "forms",
            "platform": null,
            "KUID": "ife1cb4df1274c64abde2add7e7b73c8"
        },
        "language": "js",
        "actions": [{
            "id": "ADD_SNIPPET_ide_preShow_c5cc1b69d11742d39ab48f28a5db72b6",
            "type": "ADD_SNIPPET",
            "codeSnippet": "this.preshow();"
        }]
    }
}