{
    "AS_Form_a098dcbf1079495b91cb8ae700400da6": {
        "id": "AS_Form_a098dcbf1079495b91cb8ae700400da6",
        "type": "ACTION_SEQUENCE",
        "params": [{
            "datatype": "collection",
            "name": "eventobject"
        }],
        "contextObj": {
            "name": "CopyfrmSavingsVerifyDetails",
            "type": "forms",
            "platform": null,
            "KUID": "a2c9a662391048d3933d2109c879a765"
        },
        "language": "js",
        "actions": [{
            "id": "ADD_SNIPPET_ide_postShow_af927a1802b84a0883623d0c694dbe28",
            "type": "ADD_SNIPPET",
            "codeSnippet": "this.postShow();"
        }]
    }
}