{
    "AS_Form_j6d843745ff144b88c8ef15c7857595a": {
        "id": "AS_Form_j6d843745ff144b88c8ef15c7857595a",
        "type": "ACTION_SEQUENCE",
        "params": [{
            "datatype": "collection",
            "name": "eventobject"
        }],
        "contextObj": {
            "name": "CopyfrmMFASecurityCode",
            "type": "forms",
            "platform": null,
            "KUID": "bd77df1ed0514bd387ea0ce2ffd4825b"
        },
        "language": "js",
        "actions": [{
            "id": "ADD_SNIPPET_ide_init_aed0efcfc1d54824aa5dc07b6f818a2d",
            "type": "ADD_SNIPPET",
            "codeSnippet": "this.init();",
            "callbackType": null
        }]
    }
}