{
    "AS_Image_fc3243a85ede4e32887876bf9e9c6079": {
        "id": "AS_Image_fc3243a85ede4e32887876bf9e9c6079",
        "type": "ACTION_SEQUENCE",
        "params": [{
            "datatype": "collection",
            "name": "eventobject"
        }, {
            "datatype": "string",
            "name": "x"
        }, {
            "datatype": "string",
            "name": "y"
        }],
        "contextObj": {
            "name": "CopyfrmGoalfundAmount",
            "type": "forms",
            "platform": null,
            "KUID": "fea040cd4a714d209c71890e2a642fb9"
        },
        "language": "js",
        "actions": [{
            "id": "ADD_SNIPPET_ide_onTouchEnd_a7509dcc61304b30ac68a17bf080d9d7",
            "type": "ADD_SNIPPET",
            "codeSnippet": "this.clearKeypadChar()",
            "callbackType": null
        }]
    }
}