{
    "AS_Image_a871232c5c284627b59cb1ac2cd6179f": {
        "id": "AS_Image_a871232c5c284627b59cb1ac2cd6179f",
        "type": "ACTION_SEQUENCE",
        "params": [{
            "datatype": "collection",
            "name": "eventobject"
        }, {
            "datatype": "string",
            "name": "x"
        }, {
            "datatype": "string",
            "name": "y"
        }],
        "contextObj": {
            "name": "frmSavingspotfundAmount",
            "type": "forms",
            "platform": null,
            "KUID": "b9bb3d105b2344e09d1531595fb792ca"
        },
        "language": "js",
        "actions": [{
            "id": "ADD_SNIPPET_ide_onTouchEnd_eeb0e5ae51704b33ac923e41680caddc",
            "type": "ADD_SNIPPET",
            "codeSnippet": "this.clearKeypadChar()",
            "callbackType": null
        }]
    }
}