{
    "AS_Segment_d60e5a81b9e14c8a9a962577eadfa889": {
        "id": "AS_Segment_d60e5a81b9e14c8a9a962577eadfa889",
        "type": "ACTION_SEQUENCE",
        "params": [{
            "datatype": "collection",
            "name": "eventobject"
        }, {
            "datatype": "number",
            "name": "sectionNumber"
        }, {
            "datatype": "number",
            "name": "rowNumber"
        }],
        "contextObj": {
            "name": "CopyfrmMMTransferFromAccount",
            "type": "forms",
            "platform": null,
            "KUID": "d8027d6acde249cd85f845a5823f82a0"
        },
        "language": "js",
        "actions": [{
            "id": "ADD_SNIPPET_ide_onRowClick_d727588ef6fb4482896b6b6470305305",
            "type": "ADD_SNIPPET",
            "codeSnippet": "this.onRowClick();",
            "callbackType": null
        }]
    }
}