{
    "AS_Segment_i5d29c43fce1405abcbbf3e61ce2ae4a": {
        "id": "AS_Segment_i5d29c43fce1405abcbbf3e61ce2ae4a",
        "type": "ACTION_SEQUENCE",
        "params": [{
            "datatype": "collection",
            "name": "eventobject"
        }, {
            "datatype": "number",
            "name": "sectionNumber"
        }, {
            "datatype": "number",
            "name": "rowNumber"
        }],
        "contextObj": {
            "name": "CopyfrmMMTransferFromAccount",
            "type": "forms",
            "platform": null,
            "KUID": "efe5e5d7d2f340088b8fdec5bd397692"
        },
        "language": "js",
        "actions": [{
            "id": "ADD_SNIPPET_ide_onRowClick_e0f2ab74b78142d9bc3e6fbb7dd8e449",
            "type": "ADD_SNIPPET",
            "codeSnippet": "this.onRowClick();",
            "callbackType": null
        }]
    }
}