{
    "@class": "com.kony.gen.viz.model.component.KVizImage2",
    "DNDConfig": null,
    "__parentReadjusting__": false,
    "_base64_": null,
    "_height_": {
        "type": "string",
        "value": "100%"
    },
    "_left_": {
        "type": "string",
        "value": "0dp"
    },
    "_margin_": [
        0,
        0,
        0,
        0
    ],
    "_padding_": [
        2,
        1,
        2,
        1
    ],
    "_skin_": "s679032976ec4441b527ec218f32745a",
    "_src_": "loadermedium.gif",
    "_top_": {
        "type": "string",
        "value": "0dp"
    },
    "_width_": {
        "type": "string",
        "value": "100%"
    },
    "canUpdateUI": true,
    "containerweight": 100,
    "id": "imgAd1",
    "ide_onDownloadComplete": "AS_Image_hac84a91a21749f2a46b960152954fd4",
    "imagescalemode": 0,
    "imagewhenfailed": "loadermedium.gif",
    "imagewhiledownloading": "loadermedium.gif",
    "info": null,
    "invokedProperty": "src",
    "iscustomlayout": false,
    "isvisible": true,
    "kuid": "e08119f311c54461b4b91d48b6e13503",
    "name": "kony.ui.Image2",
    "parent": "flxAd1",
    "pf": "frmUnifiedDashboard",
    "retaincontentalignment": false,
    "retainflexpositionproperties": false,
    "srcType": 1,
    "wType": "Image",
    "widgetalignment": 5,
    "zindex": 1
}