{
    "@class": "com.kony.gen.viz.model.component.KVizUserWidget",
    "DNDConfig": null,
    "__parentReadjusting__": false,
    "_children_": [],
    "_height_": {
        "type": "string",
        "value": "60dp"
    },
    "_left_": {
        "type": "string",
        "value": "0dp"
    },
    "_margin_": [
        0,
        0,
        0,
        0
    ],
    "_orientation_": 1,
    "_padding_": [
        0,
        0,
        0,
        0
    ],
    "_percent_": true,
    "_render_": true,
    "_skin_": "s7b436962d6a4647b197083ac7d03d38",
    "_top_": {
        "type": "string",
        "value": "0dp"
    },
    "_width_": {
        "type": "string",
        "value": "100%"
    },
    "areflexpropsreferenced": false,
    "canUpdateUI": true,
    "clipbounds": false,
    "containerweight": 0,
    "dataDiffs": {
        "customFooter": {
            "__events__": {},
            "__info__": {
                "isRoot": true,
                "kuid": "bce67000bf8b482d8f53832cca4e3f88",
                "srcKUID": "ee365a90ac944dd08f3a7b71c16c0fb3",
                "wType": "FlexContainer"
            }
        },
        "flxAccSelect": {
            "__events__": {},
            "__info__": {
                "kuid": "d4bc8fecdf4b4b4c903494c379aaac8c",
                "srcKUID": "edd3ca8c3bbc43fdb471136dff93a1dc",
                "wType": "FlexContainer"
            }
        },
        "flxAccounts": {
            "__events__": {},
            "__info__": {
                "kuid": "b6ab3abd08d04c309295ae815f5fb835",
                "srcKUID": "f897ae694949489f80a3e5ada858a8bc",
                "wType": "FlexContainer"
            }
        },
        "flxBillPay": {
            "__events__": {},
            "__info__": {
                "kuid": "cab8d6316aaa4011aff8b46f4e4b1889",
                "srcKUID": "ad2f337e4c7d47a29e6004285b17075f",
                "wType": "FlexContainer"
            }
        },
        "flxBillSelected": {
            "__events__": {},
            "__info__": {
                "kuid": "i4786d21aa0049f383c7c8ef5b176872",
                "srcKUID": "efa5006af84141faabfb6ba4e77f39b3",
                "wType": "FlexContainer"
            },
            "isVisible": false
        },
        "flxContainer": {
            "__events__": {},
            "__info__": {
                "kuid": "jdd73f4182bd4946b45dc578c7bd1df9",
                "srcKUID": "a2bdd76f897f4700947cdc5831d025fb",
                "wType": "FlexContainer"
            }
        },
        "flxMore": {
            "__events__": {},
            "__info__": {
                "kuid": "f451f347310045dab9fa5848bf05aa0b",
                "srcKUID": "c57c812244d44cd6a22a386b817983cc",
                "wType": "FlexContainer"
            }
        },
        "flxMoreSelect": {
            "__events__": {},
            "__info__": {
                "kuid": "h31b74820b2e4870b0c0fc9d8c85a76e",
                "srcKUID": "d44abf5d36bb4f798a3a74997c3d431b",
                "wType": "FlexContainer"
            },
            "isVisible": false
        },
        "flxTransfer": {
            "__events__": {},
            "__info__": {
                "kuid": "f7811d70a9434840bcdfdb2ba6cf52e6",
                "srcKUID": "gefcd6fa81094c219787659bb633513f",
                "wType": "FlexContainer"
            }
        },
        "flxTransferSel": {
            "__events__": {},
            "__info__": {
                "kuid": "f8c6d5aff532434cb825661921fc666d",
                "srcKUID": "j47f2ec2c9aa4769a5a5a5f391c4eccf",
                "wType": "FlexContainer"
            },
            "isVisible": false
        },
        "flxTypeOneShadow": {
            "__events__": {},
            "__info__": {
                "kuid": "aef6e2fe0bbd4991a4201d865df797b4",
                "srcKUID": "idc4e825cff344e7a6f70eb33e68e813",
                "wType": "FlexContainer"
            }
        },
        "imgAccounts": {
            "__events__": {},
            "__info__": {
                "kuid": "bf4aeffa3ce54e6cb353b0ddfa80eb39",
                "srcKUID": "d8607e26bc8e4bdeb7f28ff6cbc0a353",
                "wType": "Image"
            },
            "src": "accounts.png"
        },
        "imgBillPay": {
            "__events__": {},
            "__info__": {
                "kuid": "je7d1fe2358647859cda5d5b44ffcebf",
                "srcKUID": "c311ac836ed6441787c0364555e1aa9b",
                "wType": "Image"
            },
            "src": "billpay.png"
        },
        "imgMore": {
            "__events__": {},
            "__info__": {
                "kuid": "j93168681edd464e8011b37e7853b5dd",
                "srcKUID": "daf0d4a66d064a329f49163b460efe1f",
                "wType": "Image"
            },
            "src": "more.png"
        },
        "imgTransfer": {
            "__events__": {},
            "__info__": {
                "kuid": "a6a49d61352b4fe890c19a093b3bd45e",
                "srcKUID": "abd4eccaab1c4bda89c7807c17e5fbe1",
                "wType": "Image"
            },
            "src": "transfer.png"
        },
        "lblAccounts": {
            "__events__": {},
            "__info__": {
                "kuid": "c0dabcc2d56449749fe009c0f75fe522",
                "srcKUID": "aaf2ab35d432473b9c1a4dac93cbebe6",
                "wType": "Label"
            }
        },
        "lblBillPay": {
            "__events__": {},
            "__info__": {
                "kuid": "cecf0653dfef4beda8827fbce4eb8e71",
                "srcKUID": "d12314c85bfc428f9a77a1e1bd91c3a8",
                "wType": "Label"
            }
        },
        "lblMore": {
            "__events__": {},
            "__info__": {
                "kuid": "afbae37b22854e2e9bdb51bac9969d6b",
                "srcKUID": "h7fd0beae4ec4b3cb6ad5f00a6eff4a5",
                "wType": "Label"
            }
        },
        "lblTransfer": {
            "__events__": {},
            "__info__": {
                "kuid": "db36da3a92ed4a9ca834ac44b8d72662",
                "srcKUID": "ffebf87580944641b9b87adbfbdd6023",
                "wType": "Label"
            }
        }
    },
    "id": "customFooter",
    "info": null,
    "iscustomlayout": false,
    "isdatareferenced": false,
    "isvisible": true,
    "kuid": "f5689f3319a44758a4b658502d01663b",
    "layouttype": 2,
    "masterType": 0,
    "name": "kony.ui.UserWidgetInstance",
    "parent": "flxFooter",
    "pf": "frmAccountDetails",
    "retaincontentalignment": false,
    "retainflexpositionproperties": false,
    "snaptogrid": true,
    "sourceUserWidget": "ee365a90ac944dd08f3a7b71c16c0fb3",
    "wType": "UserWidgetInstance",
    "zindex": 300
}