{
    "@class": "com.kony.gen.viz.model.component.KVizUserWidget",
    "DNDConfig": null,
    "__parentReadjusting__": false,
    "_android_": {},
    "_children_": [],
    "_height_": {
        "type": "string",
        "value": "40dp"
    },
    "_left_": {
        "type": "string",
        "value": "0dp"
    },
    "_margin_": [
        0,
        0,
        0,
        0
    ],
    "_orientation_": 1,
    "_padding_": [
        0,
        0,
        0,
        0
    ],
    "_percent_": true,
    "_render_": true,
    "_skin_": "s966eaf1ea1441148b4828270a782f8b",
    "_top_": {
        "type": "string",
        "value": "0dp"
    },
    "_vizProps_": {
        "hidewidgethierarchy": false
    },
    "_width_": {
        "type": "string",
        "value": "100%"
    },
    "areflexpropsreferenced": false,
    "canUpdateUI": true,
    "clipbounds": false,
    "containerweight": 100,
    "dataDiffs": {
        "btnCancel": {
            "__events__": {},
            "__info__": {
                "kuid": "jf2f4b4f44bf4f0098edc974a39aabae",
                "srcKUID": "cf0f0a7a19664002a53a1f77e7082c6c",
                "wType": "Button"
            }
        },
        "customSearchbox": {
            "__events__": {},
            "__info__": {
                "isRoot": true,
                "kuid": "g0118c75796b47dfbbd37b6ea1e5134e",
                "srcKUID": "f1b1b5e40a58453ab9a1b4f121e4f4eb",
                "wType": "FlexContainer"
            }
        },
        "flxHeaderShadow": {
            "__events__": {},
            "__info__": {
                "kuid": "c93fefabc48a4e839aef0771692bf2c6",
                "srcKUID": "f2d9c4a6a40143d8810c778f5f634853",
                "wType": "FlexContainer"
            }
        },
        "flxSearch": {
            "__events__": {},
            "__info__": {
                "kuid": "g362ec4211aa4dda96609d5d8f7b6557",
                "srcKUID": "b3770ab32332447ab59176519234cee8",
                "wType": "FlexContainer"
            }
        },
        "flxSearchMain": {
            "__events__": {},
            "__info__": {
                "kuid": "g6b487830e5d4895bf994510d78281cd",
                "srcKUID": "db20269d51344928b8ba8a9b29d0741f",
                "wType": "FlexContainer"
            }
        },
        "imgSearch": {
            "__events__": {},
            "__info__": {
                "kuid": "cc2f11fd986d4407b1eb2a515329ecc6",
                "srcKUID": "f9d61cc007354263ab63d0c7a742aa41",
                "wType": "Image"
            }
        },
        "imgSearchIcon": {
            "__events__": {},
            "__info__": {
                "kuid": "d8dbfcc4108f403db734d0c644408b00",
                "srcKUID": "j657ec465367414995d83c0c48f49c43",
                "wType": "Image"
            }
        },
        "tbxSearch": {
            "__events__": {},
            "__info__": {
                "kuid": "cb76e74ffc4242a3bc50ca32be9a2dd7",
                "srcKUID": "b9d79b6a7ddf4527a22a3e3cc610c0f5",
                "wType": "TextField"
            },
            "placeholder": "Search by payee name"
        }
    },
    "id": "customSearchbox",
    "info": null,
    "iscustomlayout": false,
    "isdatareferenced": false,
    "isvisible": true,
    "kuid": "c1d3b60c4cfa4780b25fc4b61d3f774d",
    "layouttype": 2,
    "masterType": 0,
    "name": "kony.ui.UserWidgetInstance",
    "parent": "flxHeaderSearchAddress",
    "pf": "frmBillPaySearchPayee",
    "retaincontentalignment": false,
    "retainflexpositionproperties": false,
    "snaptogrid": true,
    "sourceUserWidget": "f1b1b5e40a58453ab9a1b4f121e4f4eb",
    "wType": "UserWidgetInstance"
}