{
    "@class": "com.kony.gen.viz.model.component.KVizButton",
    "DNDConfig": null,
    "__parentReadjusting__": false,
    "_bottom_": {
        "type": "string",
        "value": "20dp"
    },
    "_height_": {
        "type": "string",
        "value": "40dp"
    },
    "_left_": {
        "type": "string",
        "value": "20dp"
    },
    "_margin_": [
        6,
        6,
        6,
        6
    ],
    "_padding_": [
        0,
        0,
        0,
        0
    ],
    "_right_": {
        "type": "string",
        "value": "20dp"
    },
    "_skin_": "s30d39ca8c744d388569c1d52d0824b6",
    "_text_": "",
    "accessibilityconfig": {
        "a11yHint": "Tap Set as Default to make this the default choice",
        "a11yLabel": "Set as Default"
    },
    "canUpdateUI": true,
    "containerweight": 100,
    "contentalignment": 5,
    "disabledSkins": {},
    "displaytext": true,
    "focusskin": "s77f5e4693994923b02a151cae68403f",
    "id": "btnEnableAndSetAsDefault",
    "info": null,
    "iscustomlayout": false,
    "isvisible": false,
    "kuid": "ia99a657e7d34c13a162d7ffaece2ff0",
    "name": "kony.ui.Button",
    "parent": "flxMainContainer",
    "pf": "frmDevRegPinConfirmation",
    "retaincontentalignment": false,
    "retainflexpositionproperties": false,
    "texti18n": "kony.mb.devReg.enableNSetDefault",
    "wType": "Button",
    "zindex": 1,
    "iphone": {
        "psp": {
            "showProgressIndicator": false
        }
    }
}