{
    "@class": "com.kony.gen.viz.model.container.KVizSegment2",
    "DNDConfig": null,
    "__parentReadjusting__": false,
    "_data_": [
        {
            "imgRemoveAttachment": {
                "@class": "com.viz.ide.model.segment.ImageSegmentData",
                "src": "remove_attachment.png"
            },
            "lblAttachment": {
                "@class": "com.viz.ide.model.segment.SimpleTextSegmentData",
                "text": "Attachment1"
            }
        },
        {
            "imgRemoveAttachment": {
                "@class": "com.viz.ide.model.segment.ImageSegmentData",
                "src": "remove_attachment.png"
            },
            "lblAttachment": {
                "@class": "com.viz.ide.model.segment.SimpleTextSegmentData",
                "text": "Attachment2"
            }
        },
        {
            "imgRemoveAttachment": {
                "@class": "com.viz.ide.model.segment.ImageSegmentData",
                "src": "remove_attachment.png"
            },
            "lblAttachment": {
                "@class": "com.viz.ide.model.segment.SimpleTextSegmentData",
                "text": "Attachment3"
            }
        }
    ],
    "_height_": {
        "type": "ref",
        "value": "preferred"
    },
    "_indicator_": "none",
    "_left_": {
        "type": "string",
        "value": "4%"
    },
    "_margin_": [
        0,
        0,
        0,
        0
    ],
    "_orientation_": 2,
    "_padding_": [
        0,
        0,
        0,
        0
    ],
    "_top_": {
        "type": "string",
        "value": "0dp"
    },
    "_width_": {
        "type": "string",
        "value": "92%"
    },
    "autogrowmode": 1,
    "canUpdateUI": true,
    "containerweight": 100,
    "counter": "02",
    "focusedindex": null,
    "focuseditem": null,
    "groupcells": false,
    "hasSections": false,
    "id": "segAttachmentsList",
    "info": null,
    "ipad": {
        "psp": {
            "indicator": "rowselect"
        }
    },
    "iphone": {
        "psp": {
            "indicator": "rowselect"
        }
    },
    "iscustomlayout": false,
    "isvisible": true,
    "kuid": "db49c729263042cb9b4a6e14eeed67ed",
    "masterdata": {},
    "name": "kony.ui.SegmentedUI2",
    "needpageindicator": true,
    "pageoffdotimage": "pageoffdot.png",
    "pageondotimage": "pageondot.png",
    "paginationconfig": {
        "position": "bottom"
    },
    "parent": "flxAttachmentsList",
    "pf": "frmEuropeVerifyTransferDetails",
    "retaincontentalignment": false,
    "retainflexpositionproperties": false,
    "retainselection": false,
    "rowTemplateId": "g6deb000ace64bb886ba24b1305a4a41",
    "rowcounter": 2,
    "rowfocusskin": "sec47134c53840738acea176209ff716",
    "rowskin": "s18472307db04580a2a9cb6f4681ebec",
    "rowtemplate": "flxAttachmentList",
    "screenlevelwidget": false,
    "seccounter": 0,
    "sectionheaderskin": "s65e8b0a8be54624ac979cda71a22cac",
    "selectedRows": null,
    "selectedState": false,
    "selectedindex": null,
    "selectedindices": null,
    "selecteditems": null,
    "selectedsectionindex": 0,
    "selectionbehavior": "default",
    "separatorrequired": false,
    "showscrollbars": false,
    "viewtype": "tableview",
    "vizProps": {},
    "wType": "Segment",
    "widgetalignment": 5,
    "widgetdatamap": {
        "flxAttachmentList": "flxAttachmentList",
        "flxAttachments": "flxAttachments",
        "flxRemoveAttachment": "flxRemoveAttachment",
        "imgRemoveAttachment": "imgRemoveAttachment",
        "lblAttachment": "lblAttachment"
    },
    "zindex": 1
}