{
    "@class": "com.kony.gen.viz.model.component.KVizButton",
    "DNDConfig": null,
    "__parentReadjusting__": false,
    "_bottom_": {
        "type": "string",
        "value": "20dp"
    },
    "_height_": {
        "type": "string",
        "value": "40dp"
    },
    "_left_": {
        "type": "string",
        "value": "20dp"
    },
    "_margin_": [
        6,
        6,
        6,
        6
    ],
    "_padding_": [
        0,
        0,
        0,
        0
    ],
    "_right_": {
        "type": "string",
        "value": "20dp"
    },
    "_skin_": "sc61e719c72447bf9f14db24bea23eb3",
    "_text_": "CONTINUE",
    "accessibilityconfig": {
        "a11yLabel": "CONFIRM & ADD PAYEE"
    },
    "canUpdateUI": true,
    "containerweight": 100,
    "contentalignment": 5,
    "disabledSkins": {},
    "displaytext": true,
    "focusskin": "sd85a0f475ff4b3b9f0a5e4b82f68213",
    "id": "btnContinue",
    "info": null,
    "isvisible": true,
    "kuid": "eea124a2744346109264137d9741c462",
    "name": "kony.ui.Button",
    "parent": "frmVerifyAccDetailsEurope",
    "pf": "frmVerifyAccDetailsEurope",
    "texti18n": "kony.mb.p2p.confirmAndAddPayee",
    "wType": "Button",
    "zindex": 1,
    "iphone": {
        "psp": {
            "showProgressIndicator": false
        }
    }
}