{
    "@class": "com.kony.gen.viz.model.component.KVizUserWidget",
    "DNDConfig": null,
    "__parentReadjusting__": false,
    "_children_": [],
    "_height_": {
        "type": "string",
        "value": "100%"
    },
    "_left_": {
        "type": "string",
        "value": "0dp"
    },
    "_margin_": [
        0,
        0,
        0,
        0
    ],
    "_orientation_": 1,
    "_padding_": [
        0,
        0,
        0,
        0
    ],
    "_percent_": true,
    "_skin_": "s966eaf1ea1441148b4828270a782f8b",
    "_top_": {
        "type": "string",
        "value": "0dp"
    },
    "_width_": {
        "type": "string",
        "value": "100%"
    },
    "areflexpropsreferenced": false,
    "autogrowmode": 0,
    "canUpdateUI": true,
    "clipbounds": true,
    "containerweight": 0,
    "dataDiffs": {
        "flxBottom": {
            "__events__": {},
            "__info__": {
                "kuid": "i08a59b748f64080b4685abb303d8319",
                "srcKUID": "hfa3ceaa10884a86b9cdaacc0c379671",
                "wType": "FlexContainer"
            }
        },
        "flxBtns": {
            "__events__": {},
            "__info__": {
                "kuid": "gd936c796f194e5c83447925037c7b56",
                "srcKUID": "db71eeb16f9f4b508070ef6781d5c6b9",
                "wType": "FlexContainer"
            }
        },
        "flxCancel": {
            "__events__": {},
            "__info__": {
                "kuid": "d2abd96f621545368d402dff3aa98dde",
                "srcKUID": "b4b2be8c1aaf46609298cdf98173eb0f",
                "wType": "FlexContainer"
            }
        },
        "flxContainer": {
            "__events__": {},
            "__info__": {
                "kuid": "c7d9c0a4bd2b41f084d94791a39ec398",
                "srcKUID": "c336a147843741a8b4cf0a23679b5e99",
                "wType": "FlexContainer"
            }
        },
        "flxReject": {
            "__events__": {},
            "__info__": {
                "kuid": "a34f5456cd8c4a90af67dfcc8aabcd0c",
                "srcKUID": "e135d36bc3b64b8b939eed0c244e197d",
                "wType": "FlexContainer"
            }
        },
        "flxSep1": {
            "__events__": {},
            "__info__": {
                "kuid": "da27d987e7a249fdb1ee34180d67c429",
                "srcKUID": "dbeec0d3b58b4ce290456814f157047c",
                "wType": "FlexContainer"
            }
        },
        "flxSep2": {
            "__events__": {},
            "__info__": {
                "kuid": "ab98d1c7ff374052b37bb7077164826d",
                "srcKUID": "b8dff9869e8d4cd1a09583619cfbf1a2",
                "wType": "FlexContainer"
            }
        },
        "lblContent": {
            "__events__": {},
            "__info__": {
                "kuid": "fa355b37b32e4ad8a960b79b6e9fb15c",
                "srcKUID": "eaee2bdff1a24eeba6413a1226b14284",
                "wType": "Label"
            },
            "left": {
                "Default": {
                    "type": "string",
                    "value": "7.50%"
                }
            },
            "width": {
                "Default": {
                    "type": "string",
                    "value": "85%"
                }
            }
        },
        "lblContentreject": {
            "__events__": {},
            "__info__": {
                "kuid": "e3d84913e20048db8f05f36d73aafbc8",
                "srcKUID": "ef078565ef624d2e84a2d8d583937522",
                "wType": "Label"
            }
        },
        "lblNo": {
            "__events__": {},
            "__info__": {
                "kuid": "ff523853349e47a5a41ed0e3c9370022",
                "srcKUID": "cedd8c65964f4fb0bbb4fab80facef60",
                "wType": "Label"
            }
        },
        "lblTitle": {
            "__events__": {},
            "__info__": {
                "kuid": "ad1732b809694726a1661e74b55f58e5",
                "srcKUID": "j032dfc5b4ae417eb7a69e886fce5c83",
                "wType": "Label"
            }
        },
        "lblYes": {
            "__events__": {},
            "__info__": {
                "kuid": "d52ca01f89074f3db2da7538f3244822",
                "srcKUID": "b0195fc941ac4e6d91ddd56c40df11cd",
                "wType": "Label"
            }
        },
        "rejectPopUp": {
            "__events__": {},
            "__info__": {
                "isRoot": true,
                "kuid": "adf6049eb12a4720b58440333116e895",
                "srcKUID": "a342ba29d98046868f03960456eb1f56",
                "wType": "FlexContainer"
            }
        },
        "txtRejectreason": {
            "__events__": {},
            "__info__": {
                "kuid": "g97f9e112b0f4721b49fa8f9852d9631",
                "srcKUID": "f94c0c1e7f884393bc45b9f1cf00c7be",
                "wType": "TextField"
            }
        }
    },
    "enablescrolling": true,
    "id": "withdrawpopup",
    "info": null,
    "iscustomlayout": false,
    "isdatareferenced": false,
    "issegmentchild": false,
    "isvisible": true,
    "kuid": "adf6049eb12a4720b58440333116e895",
    "layouttype": 2,
    "masterType": 0,
    "name": "kony.ui.UserWidgetInstance",
    "parent": "flxWithdrawpopup",
    "pf": "frmRequestList",
    "retaincontentalignment": false,
    "retainflexpositionproperties": false,
    "retainflowhorizontalalignment": false,
    "snapgridsize": 10,
    "snaptogrid": true,
    "sourceUserWidget": "a342ba29d98046868f03960456eb1f56",
    "wType": "UserWidgetInstance"
}