{
    "@class": "com.kony.gen.viz.model.container.KVizSegment2",
    "DNDConfig": null,
    "__parentReadjusting__": false,
    "_data_": [
        {
            "imgArrowIcon": {
                "@class": "com.viz.ide.model.segment.ImageSegmentData",
                "src": "segmentarrow.png"
            },
            "lblNameVal": {
                "@class": "com.viz.ide.model.segment.SimpleTextSegmentData",
                "text": "Transaction Limits"
            }
        },
        {
            "imgArrowIcon": {
                "@class": "com.viz.ide.model.segment.ImageSegmentData",
                "src": "segmentarrow.png"
            },
            "lblNameVal": {
                "@class": "com.viz.ide.model.segment.SimpleTextSegmentData",
                "text": "Transaction Limits"
            }
        },
        {
            "imgArrowIcon": {
                "@class": "com.viz.ide.model.segment.ImageSegmentData",
                "src": "segmentarrow.png"
            },
            "lblNameVal": {
                "@class": "com.viz.ide.model.segment.SimpleTextSegmentData",
                "text": "Transaction Limits"
            }
        },
        {
            "imgArrowIcon": {
                "@class": "com.viz.ide.model.segment.ImageSegmentData",
                "src": "segmentarrow.png"
            },
            "lblNameVal": {
                "@class": "com.viz.ide.model.segment.SimpleTextSegmentData",
                "text": "Transaction Limits"
            }
        },
        {
            "imgArrowIcon": {
                "@class": "com.viz.ide.model.segment.ImageSegmentData",
                "src": "segmentarrow.png"
            },
            "lblNameVal": {
                "@class": "com.viz.ide.model.segment.SimpleTextSegmentData",
                "text": "Transaction Limits"
            }
        },
        {
            "imgArrowIcon": {
                "@class": "com.viz.ide.model.segment.ImageSegmentData",
                "src": "segmentarrow.png"
            },
            "lblNameVal": {
                "@class": "com.viz.ide.model.segment.SimpleTextSegmentData",
                "text": "Transaction Limits"
            }
        },
        {
            "imgArrowIcon": {
                "@class": "com.viz.ide.model.segment.ImageSegmentData",
                "src": "segmentarrow.png"
            },
            "lblNameVal": {
                "@class": "com.viz.ide.model.segment.SimpleTextSegmentData",
                "text": "Transaction Limits"
            }
        },
        {
            "imgArrowIcon": {
                "@class": "com.viz.ide.model.segment.ImageSegmentData",
                "src": "segmentarrow.png"
            },
            "lblNameVal": {
                "@class": "com.viz.ide.model.segment.SimpleTextSegmentData",
                "text": "Transaction Limits"
            }
        },
        {
            "imgArrowIcon": {
                "@class": "com.viz.ide.model.segment.ImageSegmentData",
                "src": "segmentarrow.png"
            },
            "lblNameVal": {
                "@class": "com.viz.ide.model.segment.SimpleTextSegmentData",
                "text": "Transaction Limits"
            }
        },
        {
            "imgArrowIcon": {
                "@class": "com.viz.ide.model.segment.ImageSegmentData",
                "src": "segmentarrow.png"
            },
            "lblNameVal": {
                "@class": "com.viz.ide.model.segment.SimpleTextSegmentData",
                "text": "Transaction Limits"
            }
        }
    ],
    "_height_": {
        "type": "ref",
        "value": "preferred"
    },
    "_indicator_": "none",
    "_left_": {
        "type": "string",
        "value": "0dp"
    },
    "_margin_": [
        0,
        0,
        0,
        0
    ],
    "_orientation_": 2,
    "_padding_": [
        0,
        0,
        0,
        0
    ],
    "_top_": {
        "type": "string",
        "value": "0dp"
    },
    "_width_": {
        "type": "string",
        "value": "100%"
    },
    "autogrowmode": 1,
    "canUpdateUI": true,
    "containerweight": 100,
    "counter": "09",
    "focusedindex": null,
    "focuseditem": null,
    "groupcells": false,
    "hasSections": false,
    "id": "segDetails",
    "info": null,
    "ipad": {
        "psp": {
            "indicator": "rowselect"
        }
    },
    "iphone": {
        "psp": {
            "indicator": "none"
        }
    },
    "iscustomlayout": false,
    "isvisible": true,
    "kuid": "ca42cf0255be4d7eaf3cd51865032d5f",
    "masterdata": {},
    "name": "kony.ui.SegmentedUI2",
    "needpageindicator": true,
    "pageoffdotimage": "pageoffdot.png",
    "pageondotimage": "pageondot.png",
    "paginationconfig": {
        "position": "bottom"
    },
    "parent": "flxMainContainer",
    "pf": "frmUserDetailsPermission",
    "retaincontentalignment": false,
    "retainflexpositionproperties": false,
    "retainselection": false,
    "rowTemplateId": "cc5009713f084f7a8c091641b1558a84",
    "rowcounter": 9,
    "rowfocusskin": "sec47134c53840738acea176209ff716",
    "rowskin": "s18472307db04580a2a9cb6f4681ebec",
    "rowtemplate": "flxUserPermission",
    "screenlevelwidget": false,
    "seccounter": 0,
    "sectionheaderskin": "s65e8b0a8be54624ac979cda71a22cac",
    "selectedRows": null,
    "selectedState": false,
    "selectedindex": null,
    "selectedindices": null,
    "selecteditems": null,
    "selectedsectionindex": 0,
    "selectionbehavior": "default",
    "separatorrequired": false,
    "showscrollbars": false,
    "viewtype": "tableview",
    "vizProps": {},
    "wType": "Segment",
    "widgetalignment": 5,
    "widgetdatamap": {
        "flxImg": "flxImg",
        "flxMain": "flxMain",
        "flxSeparate": "flxSeparate",
        "flxUserPermission": "flxUserPermission",
        "imgArrowIcon": "imgArrowIcon",
        "lblNameVal": "lblNameVal"
    },
    "zindex": 1
}