{
    "@class": "com.kony.gen.viz.model.component.KVizLabel",
    "DNDConfig": null,
    "__parentReadjusting__": false,
    "_height_": {
        "type": "string",
        "value": "20dp"
    },
    "_left_": {
        "type": "string",
        "value": "23dp"
    },
    "_margin_": [
        1,
        1,
        1,
        1
    ],
    "_padding_": [
        0,
        0,
        0,
        0
    ],
    "_right_": {
        "type": "string",
        "value": "0dp"
    },
    "_skin_": "s870ad7847b642c8ab9a03d8886d4997",
    "_text_": "Label",
    "_top_": {
        "type": "number",
        "value": "0"
    },
    "_wrapping_": 2,
    "accessibilityconfig": {
        "a11yLabel": "Must contain uppercase & lowercase letters"
    },
    "android": {
        "textStyle": {
            "letterSpacing": 0,
            "strikeThrough": false
        }
    },
    "canUpdateUI": true,
    "containerweight": 100,
    "contentalignment": 4,
    "id": "lblRule3",
    "info": null,
    "ipad": {
        "psp": {
            "wrapping": 2
        }
    },
    "iphone": {
        "psp": {
            "wrapping": 2
        }
    },
    "iscustomlayout": false,
    "isvisible": true,
    "kuid": "d270c985510741a0a53ae8be4eb0b5da",
    "name": "kony.ui.Label",
    "parent": "flxRule3",
    "pf": "userwidgetmodel",
    "retaincontentalignment": false,
    "retainflexpositionproperties": false,
    "texti18n": "kony.mb.securityReq.upercaseLetterNote",
    "textstyle": {},
    "tooltip": "",
    "wType": "Label",
    "zindex": 1
}