{
    "@class": "com.kony.gen.viz.model.component.KVizTextBox2",
    "DNDConfig": null,
    "__parentReadjusting__": false,
    "_bottom_": {
        "type": "string",
        "value": "0dp"
    },
    "_height_": {
        "type": "string",
        "value": "48dp"
    },
    "_left_": {
        "type": "string",
        "value": "20dp"
    },
    "_margin_": [
        0,
        0,
        0,
        0
    ],
    "_padding_": [
        3,
        0,
        0,
        0
    ],
    "_placeholder_": "Activation Code",
    "_right_": {
        "type": "string",
        "value": "20dp"
    },
    "_skin_": "s7f27b9360434a228235008cd65c10dc",
    "_text_": "",
    "accessibilityconfig": {
        "a11yLabel": "Password"
    },
    "activeNativeBorderCornerRadiusControl": "centerControl",
    "autocapitalize": "none",
    "autocomplete": false,
    "autocorrect": false,
    "autofilter": false,
    "canUpdateUI": true,
    "containerheight": "",
    "containerheightmode": 1,
    "containerweight": 100,
    "contentalignment": 4,
    "disabledSkins": {},
    "focusskin": "s2688670ed0f4789900f7368aeda469c",
    "id": "tbxActivationCode",
    "info": null,
    "iphone": {
        "psp": {
            "closeButtonText": "Cancel",
            "keyboardActionLabel": 2,
            "showClearButton": false,
            "showCloseButton": true
        }
    },
    "isvisible": true,
    "keyboardtype": "A",
    "kuid": "j8dda7f92fc24302b73e4c5f8f2af384",
    "mode": "A",
    "name": "kony.ui.TextBox2",
    "parent": "flxCredentials",
    "pf": "userwidgetmodel",
    "placeholderskin": "s1bcf8b78d1649a9a56fc498f08472f8",
    "securetextentry": false,
    "textinputmode": "A",
    "tooltip": "",
    "viewtype": "default",
    "wType": "TextField",
    "zindex": 3
}