{
    "@class": "com.kony.gen.viz.model.component.KVizTextBox2",
    "DNDConfig": null,
    "__parentReadjusting__": false,
    "_height_": {
        "type": "ref",
        "value": "preferred"
    },
    "_left_": {
        "type": "string",
        "value": "10dp"
    },
    "_margin_": [
        0,
        0,
        0,
        0
    ],
    "_padding_": [
        3,
        0,
        0,
        0
    ],
    "_placeholder_": "Placeholder",
    "_right_": {
        "type": "string",
        "value": "50dp"
    },
    "_skin_": "sa44ac58b12c476a8c0f3b4de12ea3f4",
    "_text_": "",
    "autocapitalize": "none",
    "autocomplete": false,
    "autocorrect": false,
    "autofilter": false,
    "canUpdateUI": true,
    "centery": {
        "type": "string",
        "value": "50%"
    },
    "containerheight": "",
    "containerheightmode": 1,
    "containerweight": 100,
    "contentalignment": 4,
    "focusskin": "s70dae761f9c4615bc28e4536b8a255f",
    "id": "txtbxReference",
    "info": null,
    "iscustomlayout": false,
    "isvisible": true,
    "keyboardtype": "A",
    "kuid": "i3798e0e4f9a4b2b9f4c9967fa804624",
    "mode": "A",
    "name": "kony.ui.TextBox2",
    "parent": "flxReferenceWrapper",
    "pf": "frmEuropeTransferReference",
    "placeholderskin": "sc7ba661cdd2425eafe493714acf80c2",
    "retaincontentalignment": false,
    "retainflexpositionproperties": false,
    "securetextentry": false,
    "textinputmode": "A",
    "tooltip": "",
    "viewtype": "default",
    "wType": "TextField",
    "zindex": 5
}