{
    "DNDConfig": null,
    "__parentReadjusting__": false,
    "_height_": {
        "type": "string",
        "value": "55dp"
    },
    "_margin_": [
        0,
        0,
        0,
        0
    ],
    "_orientation_": 6,
    "_padding_": [
        0,
        0,
        0,
        0
    ],
    "_percent_": true,
    "_skin_": "s87ab4b554234489a996a8ec826b307e",
    "_width_": {
        "type": "string",
        "value": "350dp"
    },
    "allboxes": [],
    "autogrowmode": 0,
    "canUpdateUI": true,
    "centerx": {
        "type": "string",
        "value": "50%"
    },
    "centery": {
        "type": "string",
        "value": "50%"
    },
    "children": [
        "Label0e7ce5d9c256d48"
    ],
    "clipbounds": true,
    "containerweight": 100,
    "enablescrolling": true,
    "id": "flxEnableDisableSwitch",
    "info": null,
    "iscustomlayout": false,
    "isvisible": true,
    "kuid": "e37e9de68dff4d5e8bd2da42b887a081",
    "layouttype": 2,
    "name": "kony.ui.FlexContainer",
    "parent": "flxEnableAlert",
    "pf": "frmAccountAlertsList",
    "retaincontentalignment": false,
    "retainflexpositionproperties": false,
    "retainflowhorizontalalignment": false,
    "snapgridsize": 10,
    "snaptogrid": true,
    "wType": "FlexContainer",
    "widgetalignment": 1,
    "zindex": 1
}