{
    "@class": "com.kony.gen.viz.model.container.KVizSegment2",
    "DNDConfig": null,
    "__parentReadjusting__": false,
    "_data_": [
        {
            "lblSMS": {
                "@class": "com.viz.ide.model.segment.SimpleTextSegmentData",
                "i18nkey": "kony.mb.Alerts.SMS",
                "text": "SMS"
            },
            "switchChannel": {
                "@class": "com.viz.ide.model.segment.SelectedIndexSegmentData",
                "selectedIndex": 0
            }
        },
        {
            "lblSMS": {
                "@class": "com.viz.ide.model.segment.SimpleTextSegmentData",
                "i18nkey": "kony.mb.Alerts.SMS",
                "text": "SMS"
            },
            "switchChannel": {
                "@class": "com.viz.ide.model.segment.SelectedIndexSegmentData",
                "selectedIndex": 0
            }
        },
        {
            "lblSMS": {
                "@class": "com.viz.ide.model.segment.SimpleTextSegmentData",
                "i18nkey": "kony.mb.Alerts.SMS",
                "text": "SMS"
            },
            "switchChannel": {
                "@class": "com.viz.ide.model.segment.SelectedIndexSegmentData",
                "selectedIndex": 0
            }
        }
    ],
    "_height_": {
        "type": "ref",
        "value": "preferred"
    },
    "_indicator_": "none",
    "_left_": {
        "type": "string",
        "value": "0dp"
    },
    "_margin_": [
        0,
        0,
        0,
        0
    ],
    "_orientation_": 2,
    "_padding_": [
        0,
        0,
        0,
        0
    ],
    "_top_": {
        "type": "string",
        "value": "0dp"
    },
    "_width_": {
        "type": "string",
        "value": "100%"
    },
    "autogrowmode": 1,
    "canUpdateUI": true,
    "containerweight": 100,
    "counter": "02",
    "focusedindex": null,
    "focuseditem": null,
    "groupcells": false,
    "hasSections": false,
    "id": "SegChannelPreferences",
    "info": null,
    "ipad": {
        "psp": {
            "indicator": "rowselect"
        }
    },
    "iphone": {
        "psp": {
            "indicator": "rowselect"
        }
    },
    "iscustomlayout": false,
    "isvisible": true,
    "kuid": "ba10c0633dbc4d509da29d910197eab5",
    "masterdata": {},
    "name": "kony.ui.SegmentedUI2",
    "needpageindicator": true,
    "pageoffdotimage": "pageoffdot.png",
    "pageondotimage": "pageondot.png",
    "paginationconfig": {
        "position": "bottom"
    },
    "parent": "flxsegments",
    "pf": "frmAccountAlertsList",
    "retaincontentalignment": false,
    "retainflexpositionproperties": false,
    "retainselection": false,
    "rowTemplateId": "gb06b85804d048ed99c7b1f0ceadbaa8",
    "rowcounter": 2,
    "rowfocusskin": "sec47134c53840738acea176209ff716",
    "rowskin": "s18472307db04580a2a9cb6f4681ebec",
    "rowtemplate": "flxChannelPreferences",
    "screenlevelwidget": false,
    "seccounter": 0,
    "sectionheaderskin": "s65e8b0a8be54624ac979cda71a22cac",
    "selectedRows": null,
    "selectedState": false,
    "selectedindex": null,
    "selectedindices": null,
    "selecteditems": null,
    "selectedsectionindex": 0,
    "selectionbehavior": "default",
    "separatorcolor": "aaaaaa00",
    "separatorrequired": true,
    "separatorthickness": 1,
    "showscrollbars": false,
    "viewtype": "tableview",
    "vizProps": {},
    "wType": "Segment",
    "widgetalignment": 5,
    "widgetdatamap": {
        "flxChannel": "flxChannel",
        "flxChannelPreferences": "flxChannelPreferences",
        "flxSeparator": "flxSeparator",
        "lblSMS": "lblSMS",
        "switchChannel": "switchChannel"
    },
    "zindex": 1
}